{
	"男频" : [
	
	{"_id":"50865988d7a545903b000009","hasCp":true,"title":"斗破苍穹","aliases":"","cat":"玄幻","author":"天蚕土豆","site":"zhuishuvip","cover":"/agent/http%3A%2F%2Fimg.1391.com%2Fapi%2Fv1%2Fbookcenter%2Fcover%2F1%2F41615%2F41615_2ee961bffe91492b93fd844cbd25c765.jpg%2F","shortIntro":"这里是属于斗气的世界，没有花俏艳丽的魔法，有的，仅仅是繁衍到巅峰的斗气！\r\n新书等级制度：斗者，斗师，大斗师，斗灵，斗王，斗皇，斗宗，斗尊，斗圣，斗帝。\r\n","lastChapter":" 番外第一章 五帝破空","retentionRatio":59.08,"banned":0,"allowMonthly":false,"latelyFollower":28024,"wordCount":6016976,"contentType":"txt","superscript":"","sizetype":-1,"highlight":{"title":["斗","破","苍","穹"]}},

	{"_id":"5948c17d031fdaa005680400","hasCp":true,"title":"牧神记","aliases":"","cat":"玄幻","author":"宅猪","site":"zhuishuvip","cover":"/agent/http%3A%2F%2Fimg.1391.com%2Fapi%2Fv1%2Fbookcenter%2Fcover%2F1%2F2044498%2F2044498_b1e079fc34864ade953606f4a3ad8c68.jpg%2F","shortIntro":"大墟的祖训说，天黑，别出门。\r\n大墟残老村的老弱病残们从江边捡到了一个婴儿，取名秦牧，含辛茹苦将他养大。这一天夜幕降临，黑暗笼罩大墟，秦牧走出了家门……\r\n做个春风中荡漾的反派吧！\r\n瞎子对他说。\r\n秦牧的反派之路，正在崛起！","lastChapter":"正文卷 第一千一百九十八章 如梦似幻（第四更）","retentionRatio":76.32,"banned":0,"allowMonthly":false,"latelyFollower":79997,"wordCount":4086682,"contentType":"txt","superscript":"","sizetype":-1,"highlight":{"title":["牧","神","记"]}},
	
	{"_id":"5b1739ab4e66e33f75dca017","hasCp":true,"title":"全球高武","aliases":"","cat":"都市","author":"老鹰吃小鸡","site":"zhuishuvip","cover":"/agent/http%3A%2F%2Fimg.1391.com%2Fapi%2Fv1%2Fbookcenter%2Fcover%2F1%2F2405734%2F2405734_70db1b765c9a4f08acaef4b8dc725c65.jpg%2F","shortIntro":"今日头条——“大马宗师突破九品，征战全球！”“小马宗师问鼎至高，横扫欧亚！”“乔帮主再次出手，疑似九品大宗师境！”“股神宝刀未老，全球宗师榜再入前十！”“……”看着一条条新闻闪现，方平心好累，这剧本不对啊！","lastChapter":"第613章 大战 （万更求订阅）","retentionRatio":78.09,"banned":0,"allowMonthly":false,"latelyFollower":83437,"wordCount":3185494,"contentType":"txt","superscript":"","sizetype":-1,"highlight":{"title":["全","球","高","武"]}},

	{"_id":"58a2c128362a548b5fdf98fa","hasCp":true,"title":"道君","aliases":"","cat":"仙侠","author":"跃千愁","site":"zhuishuvip","cover":"/agent/http%3A%2F%2Fimg.1391.com%2Fapi%2Fv1%2Fbookcenter%2Fcover%2F1%2F1444681%2F1444681_1915600995d649649be3f6463c88b91d.jpg%2F","shortIntro":"一个地球神级盗墓宗师，闯入修真界的故事……桃花源里，有歌声。山外青山，白骨山。五花马，千金裘，倚天剑，应我多情，啾啾鬼鸣，美人薄嗔。天地无垠，谁家旗鼓，碧落黄泉，万古高楼。为义气争雄！为乱世争霸！你好，仙侠！","lastChapter":"正文卷 第一二八七章 又搞事了！","retentionRatio":78.07,"banned":0,"allowMonthly":false,"latelyFollower":27133,"wordCount":4219670,"contentType":"txt","superscript":"","sizetype":-1,"highlight":{"title":["道","君"]}},

	{"_id":"5816b415b06d1d32157790b1","hasCp":true,"title":"圣墟","aliases":"","cat":"玄幻","author":"辰东","site":"zhuishuvip","cover":"/agent/http%3A%2F%2Fimg.1391.com%2Fapi%2Fv1%2Fbookcenter%2Fcover%2F1%2F1228859%2F1228859_d14f18e849b34420904ead54936e440a.jpg%2F","shortIntro":"在破败中崛起，在寂灭中复苏。沧海成尘，雷电枯竭，那一缕幽雾又一次临近大地，世间的枷锁被打开了，一个全新的世界就此揭开神秘的一角……","lastChapter":"正文卷 第1320章 问世间究竟有没有轮回","retentionRatio":43.17,"banned":0,"allowMonthly":false,"latelyFollower":170073,"wordCount":4921010,"contentType":"txt","superscript":"","sizetype":-1,"highlight":{"title":["圣","墟"]}},

	{"_id":"5a589dbd46e30e144b871384","hasCp":true,"title":"伏天氏","aliases":"","cat":"玄幻","author":"净无痕","site":"zhuishuvip","cover":"/agent/http%3A%2F%2Fimg.1391.com%2Fapi%2Fv1%2Fbookcenter%2Fcover%2F1%2F2206099%2F2206099_67045f2856904a86981cb37cbb954080.jpg%2F","shortIntro":"东方神州，有人皇立道统，有圣贤宗门传道，有诸侯雄踞一方王国，诸强林立，神州动乱千万载，执此之时，一代天骄叶青帝及东凰大帝横空出世，斩人皇，驭圣贤，诸侯臣服，东方神州一统！然，叶青帝忽然暴毙，世间雕像尽皆被毁，于世间除名，沦为禁忌；从此神州唯东凰大帝独尊！十五年后，东海青州城，一名为叶伏天的少年，开启了他的传奇之路…","lastChapter":"2 第七百二十九章 目标","retentionRatio":80.03,"banned":0,"allowMonthly":false,"latelyFollower":56705,"wordCount":2366919,"contentType":"txt","superscript":"","sizetype":-1,"highlight":{"title":["伏","天","氏"]}},

	{"_id":"50865988d7a545903b000009","hasCp":true,"title":"斗破苍穹","aliases":"","cat":"玄幻","author":"天蚕土豆","site":"zhuishuvip","cover":"/agent/http%3A%2F%2Fimg.1391.com%2Fapi%2Fv1%2Fbookcenter%2Fcover%2F1%2F41615%2F41615_2ee961bffe91492b93fd844cbd25c765.jpg%2F","shortIntro":"这里是属于斗气的世界，没有花俏艳丽的魔法，有的，仅仅是繁衍到巅峰的斗气！\r\n新书等级制度：斗者，斗师，大斗师，斗灵，斗王，斗皇，斗宗，斗尊，斗圣，斗帝。\r\n","lastChapter":" 番外第一章 五帝破空","retentionRatio":59.15,"banned":0,"allowMonthly":false,"latelyFollower":28685,"wordCount":6016976,"contentType":"txt","superscript":"","sizetype":-1,"highlight":{"title":["斗","破","苍","穹"]}},

	{"_id":"50864bf69dacd30e3a000014","hasCp":true,"title":"遮天","aliases":"","cat":"仙侠","author":"辰东","site":"zhuishuvip","cover":"/agent/http%3A%2F%2Fimg.1391.com%2Fapi%2Fv1%2Fbookcenter%2Fcover%2F1%2F42216%2F42216_5fad620351204e3ead81e04ddbf69ad2.jpg%2F","shortIntro":"冰冷与黑暗并存的宇宙深处，九具庞大的龙尸拉着一口青铜古棺，亘古长存。\n这是太空探测器在枯寂的宇宙中捕捉到的一幅极其震撼的画面。\n九龙拉棺，究竟是回到了上古，还是来到了星空的彼岸？\n一个浩大的仙侠世界，光怪陆离，神秘无尽。热血似火山沸腾，激情若瀚海汹涌，欲望如深渊无止境……\n登天路，踏歌行，弹指遮天。","lastChapter":"第1851章 遮天大结局","retentionRatio":65.02,"banned":0,"allowMonthly":false,"latelyFollower":29463,"wordCount":6663129,"contentType":"txt","superscript":"","sizetype":-1,"highlight":{"title":["遮","天"]}},

	{"_id":"591ed23b1861e2e332db308e","hasCp":true,"title":"超神机械师","aliases":"","cat":"游戏","author":"齐佩甲","site":"zhuishuvip","cover":"/agent/http%3A%2F%2Fimg.1391.com%2Fapi%2Fv1%2Fbookcenter%2Fcover%2F1%2F2044454%2F2044454_5ca42e40354d4b898fa81d953a56320b.jpg%2F","shortIntro":"韩萧，《星海》骨灰级代练，被来自东（zuo）方(zhe)的神秘力量扔进穿越大军，携带玩家面板变成NPC，回到《星海》公测之前，毅然选择难度最高的机械系。\r\n战舰列队纵横星海，星辰机甲夭矫如龙，幽能炮毁天灭地，还有无边无际的机械大军，静静待在随身仓库里。\r\n一人，即是军团！\r\n如果不是玩家出现，本书就是正经严肃的穿越异界题材……\r\n作为NPC，正常NPC对玩家功能一应俱全……发布任务？好感度调节？传授技能？为什么会有选择成为玩家跟随者选项啊，把这项给我抠掉！哦，可以解除的啊。\r\n电竞第一美女？只想学技能？告辞，洒家卖身不卖艺！\r\n哎等等，这群玩家我怎么都认识啊！\r\n得，现实世界也回到了十年前。","lastChapter":"3.0赤潮！破碎星环第五席！ 758 就像雨滴落在青青草原","retentionRatio":66.45,"banned":0,"allowMonthly":false,"latelyFollower":76863,"wordCount":2397496,"contentType":"txt","superscript":"","sizetype":-1,"highlight":{"title":["超","神","机","械","师"]}},

	{"_id":"58df72ecf94b2acb74ce6cd7","hasCp":true,"title":"情动九天之凤凰虞央","aliases":"","cat":"古代言情","author":"一念之间","site":"zhuishuvip","cover":"/agent/http%3A%2F%2Fimg.1391.com%2Fapi%2Fv1%2Fbookcenter%2Fcover%2F1%2F1477289%2F_1477289_815789.jpg%2F","shortIntro":"五百年前神魔大战，她舍弃原丹、舍弃神界之宝天枢经，以凡人身份一切从头。而今战火再起，唯一能解开天枢经的方法是要用她的命。从九重帝天到锁妖塔底，她从充满希望到绝望，从活泼灵动到沉寂淡漠，经历了这世间最邪恶的地方，得到了最无法预料的结果。","lastChapter":"正文 第93章 番外篇：众里寻她千百度","retentionRatio":32.6,"banned":0,"allowMonthly":true,"latelyFollower":729,"wordCount":374939,"contentType":"txt","superscript":"","sizetype":-1,"highlight":{"author":["一","念","之","间"],"title":["之"]}},

	{"_id":"5790bc09e72826f52571f63c","hasCp":true,"title":"美食供应商","aliases":"","cat":"都市","author":"会做菜的猫","site":"zhuishuvip","cover":"/agent/http%3A%2F%2Fimg.1391.com%2Fapi%2Fv1%2Fbookcenter%2Fcover%2F1%2F1183964%2F1183964_01d1d8a2b4cc43a194709f38b8e89076.jpg%2F","shortIntro":"“在遥远的东方，存在着一个数次拒绝了米其林三星评价的奇怪小店。那里价格昂贵，一碗配汤蛋炒饭288RMB，哦忘了还有一碟泡菜，但就算是这样也有很多人排队等候。那里不接受预定，只接受本人现场排队，无数人开着专机专程排队，当然并不提供停机位或停车位。那里服务恶劣，竟然让顾客自己端菜收拾碗筷，对了还要擦桌子，哦！上帝这老板简直疯了。”——《米其林美食杂志》","lastChapter":"正文卷 第一千三百九十二章 五千万的威力","retentionRatio":67.17,"banned":0,"allowMonthly":false,"latelyFollower":28024,"wordCount":3154666,"contentType":"txt","superscript":"","sizetype":-1,"highlight":{"title":["美","食","供","应","商"]}},

	{"_id":"592fe687c60e3c4926b040ca","hasCp":true,"title":"剑来","aliases":"","cat":"仙侠","author":"烽火戏诸侯","site":"zhuishuvip","cover":"/agent/http%3A%2F%2Fimg.1391.com%2Fapi%2Fv1%2Fbookcenter%2Fcover%2F1%2F2014980%2F2014980_4886fb1ed53f453a9a76005611a3310a.jpg%2F","shortIntro":"成全心中武侠梦，文笔剧情一丝不苟，情节层层递进，引人入胜，信息量大。","lastChapter":"第六卷 小夫子 第四百五十三章  吾心安处打个盹儿","retentionRatio":56.87,"banned":0,"allowMonthly":false,"latelyFollower":77495,"wordCount":3128791,"contentType":"txt","superscript":"","sizetype":-1,"highlight":{"title":["剑","来"]}},

	{"_id":"5c0487b3dfb889be32a085fe","hasCp":true,"title":"我有一座神秘屋","aliases":"","cat":"玄幻","author":"可爱糯米团子","site":"zhuishuvip","cover":"/agent/http%3A%2F%2Fimg.1391.com%2Fapi%2Fv1%2Fbookcenter%2Fcover%2F1%2F3338506%2F3338506_d4f4fa3e9a6041e9bc7fd2912aebec31.jpg%2F","shortIntro":"神灵自沉睡中苏醒，古老的预言在慢慢实现，异域的大门缓缓地打开，新的纪元即将到来，在时代滚滚浪潮中，唯有我才是永恒，我才是世间的战神。钢铁、蒸汽、神仙妖魔，女巫、天使、异域邪神，旧秩序必将被打破，新的规则将由我来决定凭借神秘的玉佩，可以打开一座神秘的小屋，以自身为洪炉，以神魔为养分，获无敌法，夺大造化！打破枷锁，铸就传说","lastChapter":"正文卷 58 曹先生","retentionRatio":36,"banned":0,"allowMonthly":false,"latelyFollower":1469,"wordCount":165481,"contentType":"txt","superscript":"","sizetype":-1,"highlight":{"title":["我","有","一","神","秘","屋"]}},

	{"_id":"5090f0878d834c0f19000008","hasCp":true,"title":"盘龙","aliases":"","cat":"奇幻","author":"我吃西红柿","site":"zhuishuvip","cover":"/agent/http%3A%2F%2Fimg.1391.com%2Fapi%2Fv1%2Fbookcenter%2Fcover%2F1%2F41850%2F41850_bb039def324e49e38392808c464564a8.jpg%2F","shortIntro":"大小的血睛鬃毛狮，力大无穷的紫睛金毛猿，毁天灭地的九头蛇皇，携带着毁灭雷电的恐怖雷龙……这里无奇不有，这是一个广博的魔幻世界。强者可以站在黑色巨龙的头顶遨游天际，恐怖的魔法可以焚烧江河，可以毁灭城池，可以夷平山岳……\r\n这本书，讲述了一个拥有‘盘龙戒指’的少年的梦幻旅程。\r\n","lastChapter":"第809章 新的名字（大结局）（下）","retentionRatio":52.89,"banned":0,"allowMonthly":false,"latelyFollower":5374,"wordCount":3010927,"contentType":"txt","superscript":"","sizetype":-1,"highlight":{"title":["盘","龙"]}},


	{"_id":"5ac06401fd4ae699163d587f","hasCp":true,"title":"诡秘之主","aliases":"","cat":"玄幻","author":"爱潜水的乌贼","site":"zhuishuvip","cover":"/agent/http%3A%2F%2Fimg.1391.com%2Fapi%2Fv1%2Fbookcenter%2Fcover%2F1%2F2265614%2F2265614_a35a29991049448b97c7636f6b4f16bb.jpg%2F","shortIntro":"蒸汽与机械的浪潮中，谁能触及非凡？历史和黑暗的迷雾里，又是谁在耳语？我从诡秘中醒来，睁眼看见这个世界：枪械，大炮，巨舰，飞空艇，差分机；魔药，占卜，诅咒，倒吊人，封印物……光明依旧照耀，神秘从未远离，这是一段“愚者”的传说。","lastChapter":"第三部 第四十八章 文献资料","retentionRatio":73.82,"banned":0,"allowMonthly":false,"latelyFollower":40609,"wordCount":1780586,"contentType":"txt","superscript":"","sizetype":-1,"highlight":{"title":["诡","秘","之","主"]}},

	{"_id":"5afa99a6e1a9635af90fc802","hasCp":true,"title":"明朝败家子","aliases":"","cat":"历史","author":"上山打老虎额","site":"zhuishuvip","cover":"/agent/http%3A%2F%2Fimg.1391.com%2Fapi%2Fv1%2Fbookcenter%2Fcover%2F1%2F2326717%2F2326717_fa135a1044fa4602854e9cbe2f0663d5.jpg%2F","shortIntro":"“好了，好了，我承认，我不是人，我是败家子，我卑鄙，我无耻，我卖了家业，我愧对祖先，我还四处沾花惹草，恶贯满盈。爹，有话好好说，可以把你的大刀放下好吗？”","lastChapter":"正文卷 第八百六十九章：孙儿见过陛下","retentionRatio":77.38,"banned":0,"allowMonthly":false,"latelyFollower":61539,"wordCount":2662065,"contentType":"txt","superscript":"","sizetype":-1,"highlight":{"title":["明","朝","败","家","子"]}},

	{"_id":"508646479dacd30e3a000001","hasCp":true,"title":"将夜","aliases":"","cat":"玄幻","author":"猫腻","site":"zhuishuvip","cover":"/agent/http%3A%2F%2Fimg.1391.com%2Fapi%2Fv1%2Fbookcenter%2Fcover%2F1%2F42314%2F42314_e1c68c4267f54a968806264b7538d14a.jpg%2F","shortIntro":"与天斗，其乐无穷。","lastChapter":"第六卷忽然之间 第一百三十章 结尾","retentionRatio":54.53,"banned":0,"allowMonthly":false,"latelyFollower":35371,"wordCount":3953309,"contentType":"txt","superscript":"","sizetype":-1,"highlight":{"title":["将","夜"]}},

	{"_id":"5a4f6be93b3f77755998d58a","hasCp":true,"title":"太初","aliases":"","cat":"玄幻","author":"高楼大厦","site":"zhuishuvip","cover":"/agent/http%3A%2F%2Fimg.1391.com%2Fapi%2Fv1%2Fbookcenter%2Fcover%2F1%2F2208075%2F2208075_3f1059fc7644413abfefa29521e1d72b.jpg%2F","shortIntro":"一树生的万朵花，天下道门是一家。法术千般变化，人心却亘古不变","lastChapter":"正文卷 第一千三百八十五章 魔祖二字震仙门【四更】","retentionRatio":51.56,"banned":0,"allowMonthly":false,"latelyFollower":8406,"wordCount":4770472,"contentType":"txt","superscript":"","sizetype":-1,"highlight":{"title":["太","初"]}},

	{"_id":"55eef8b27445ad27755670b9","hasCp":true,"title":"修真聊天群","aliases":"","cat":"都市","author":"圣骑士的传说","site":"zhuishuvip","cover":"/agent/http%3A%2F%2Fimg.1391.com%2Fapi%2Fv1%2Fbookcenter%2Fcover%2F1%2F857368%2F857368_8428516582234635819871b0dd5862e7.jpg%2F","shortIntro":"某天，宋书航意外加入了一个仙侠中二病资深患者的交流群，里面的群友们都以‘道友’相称，群名片都是各种府主、洞主、真人、天师。连群主走失的宠物犬都称为大妖犬离家出走。整天聊的是炼丹、闯秘境、炼功经验啥的。\r\n突然有一天，潜水良久的他突然发现……群里每一个群员，竟然全部是修真者，能移山倒海、长生千年的那种！\r\n啊啊啊啊，世界观在一夜间彻底崩碎啦！","lastChapter":"第2382章 你能办的到，相信自己！","retentionRatio":73.45,"banned":0,"allowMonthly":false,"latelyFollower":111343,"wordCount":7189244,"contentType":"txt","superscript":"","sizetype":-1,"highlight":{"title":["修","真","聊","天","群"]}},

	{"_id":"577720f94501fe64648efd81","hasCp":true,"title":"我的1979","aliases":"","cat":"都市","author":"争斤论两花花帽","site":"zhuishuvip","cover":"/agent/http%3A%2F%2Fimg.1391.com%2Fapi%2Fv1%2Fbookcenter%2Fcover%2F1%2F1187697%2F1187697_445f0132eee04cdb9650ba6f1402c8fb.jpg%2F","shortIntro":"一觉醒来，回到70年代，再次面对过往，你猜不透的结局..........","lastChapter":"第六卷 195、撕扯","retentionRatio":65.8,"banned":0,"allowMonthly":false,"latelyFollower":21101,"wordCount":3845161,"contentType":"txt","superscript":"","sizetype":-1,"highlight":{"title":["我","的","1","9","7"]}},

	{"_id":"57e8ca5f9e3676e24cce3544","hasCp":true,"title":"天神诀","aliases":"","cat":"玄幻","author":"太一生水","site":"zhuishuvip","cover":"/agent/http%3A%2F%2Fimg.1391.com%2Fapi%2Fv1%2Fbookcenter%2Fcover%2F1%2F1188321%2F1188321_75b47d487f3243a6914635a318a20219.jpg%2F","shortIntro":"苍穹星域，武魂万千。有飞龙在天，可一日千里。有霸气无双，可斗转星移。杨青玄身怀十大至强武魂之一“天下有敌”，从此十荡十决，千军辟易！ ","lastChapter":"第2393章 弥道丹，突破之法","retentionRatio":70.46,"banned":0,"allowMonthly":false,"latelyFollower":5203,"wordCount":5103154,"contentType":"txt","superscript":"","sizetype":-1,"highlight":{"title":["天","神","诀"]}},

	{"_id":"5bf25e98b8da4527c1990f80","hasCp":true,"title":"东皇大帝","aliases":"","cat":"玄幻","author":"风轻扬","site":"zhuishuvip","cover":"/agent/http%3A%2F%2Fimg.1391.com%2Fapi%2Fv1%2Fbookcenter%2Fcover%2F1%2F3333594%2F3333594_f054a486027b49b0a0c66cf0c7d3c8d3.jpg%2F","shortIntro":"从地球走出的周东皇，抬手间可以毁灭宇宙间任何一颗星辰，神念一扫可以笼罩一方广阔星域，万劫不灭的强大元神更是可以脱离肉身遨游整个宇宙！昆仑山上，一方时空阵盘，让他回到了千年之前……","lastChapter":"周东皇 第八十一章 变脸如翻书","retentionRatio":37.56,"banned":0,"allowMonthly":false,"latelyFollower":959,"wordCount":255175,"contentType":"txt","superscript":"","sizetype":-1,"highlight":{"title":["东","皇","大","帝"]}},

	{"_id":"5090efee8d834c0f19000003","hasCp":true,"title":"星辰变","aliases":"","cat":"仙侠","author":"我吃西红柿","site":"zhuishuvip","cover":"/agent/http%3A%2F%2Fimg.1391.com%2Fapi%2Fv1%2Fbookcenter%2Fcover%2F1%2F42132%2F42132_f21b9e4ea53749988c6daabec1cd8af3.jpg%2F","shortIntro":"一名孩童，天生无法修炼内功。为了得到父亲的重视关注，他毅然选择了修炼痛苦艰难的外功。春去秋来，时光如梭，这个孩童长大了……变成了一名青年，真正改变他的命运，是一颗流星化作的神秘晶石——流星泪。这颗流星泪在青年无所觉中，融入了青年的体内，青年他也仿佛破茧化蝶一般蜕变……而随之而来的，一切都发生了变化。而他的父亲也终于知道了他从来没有真正倾注心力的儿子的惊人实力……\r\n","lastChapter":"第680章  第十八集  鸿蒙金榜","retentionRatio":55.33,"banned":0,"allowMonthly":false,"latelyFollower":26250,"wordCount":2702980,"contentType":"txt","superscript":"","sizetype":-1,"highlight":{"title":["星","辰","变"]}},

	{"_id":"5b45dceaba5dc76726a0a535","hasCp":true,"title":"乡村美娇娘","aliases":"","cat":"都市","author":"明月光下","site":"zhuishuvip","cover":"/agent/http%3A%2F%2Fimg.1391.com%2Fapi%2Fv1%2Fbookcenter%2Fcover%2F1%2F2607577%2F2607577_b94a0f8e71a143d6bea7308d7a4fc9d3.jpg%2F","shortIntro":"无意间窥到隔壁嫂子的羞羞事，没想到她竟然要……","lastChapter":"正文 第四百三十章 大结局","retentionRatio":38.7,"banned":0,"allowMonthly":true,"latelyFollower":7773,"wordCount":1376146,"contentType":"txt","superscript":"","sizetype":-1,"highlight":{"title":["乡","村","美","娇","娘"]}},

	{"_id":"59083c9d219902e7111d786c","hasCp":true,"title":"野山女人香","aliases":"","cat":"都市","author":"断欲","site":"zhuishuvip","cover":"/agent/http%3A%2F%2Fimg.1391.com%2Fapi%2Fv1%2Fbookcenter%2Fcover%2F1%2F3318644%2F3318644_4ced30f876384947a3c6bbff8be93a32.jpg%2F","shortIntro":"山村少年带领全村留守女人发家致富，并且在这些留守女人的帮助下，排除万难，励精图治，最终飞黄腾达。","lastChapter":"正文 第1210章  大结局","retentionRatio":37.57,"banned":0,"allowMonthly":false,"latelyFollower":2939,"wordCount":4159627,"contentType":"txt","superscript":"","sizetype":-1,"highlight":{"title":["野","山","女","人","香"]}},

	{"_id":"5ba4beb430add60de069817f","hasCp":true,"title":"乡村猎艳：寡妇哪里跑","aliases":"","cat":"都市","author":"良辰遇好景","site":"zhuishuvip","cover":"/agent/http%3A%2F%2Fimg.1391.com%2Fapi%2Fv1%2Fbookcenter%2Fcover%2F1%2F3313608%2F3313608_bf3f06fedcac40788ecc74044f313773_default_cover.png%2F","shortIntro":"杨木生本是红杏村里的屌丝一枚，靠一张俊秀的面貌和三寸不烂之舌混迹在各色小媳妇之间！一个偶然的机会，他先后发现了村书记和村长的秘密！悲催的是，他竟然在逃跑的过程中被天雷劈中！\n大难不死！必有后福！\n杨木生的双眼留下了雷劈“后遗症”，那就是奇妙无穷的“千里眼”！且看杨木生是怎么依靠“千里眼”慢慢建立起属于他自己的商业帝国，怎么泡遍大姑娘、小媳妇的吧！当然了，还有风骚无边的俏寡妇！","lastChapter":"第0357章 大结局","retentionRatio":36.89,"banned":0,"allowMonthly":false,"latelyFollower":3864,"wordCount":1126636,"contentType":"txt","superscript":"","sizetype":-1,"highlight":{"title":["乡","村","猎","艳","：","寡","妇","哪","里","跑"]}},

	{"_id":"584d8aaaad6cb76e4a641eb2","hasCp":true,"title":"狗带吧青春","aliases":"","cat":"都市","author":"奇犽","site":"zhuishuvip","cover":"/agent/http%3A%2F%2Fimg.1391.com%2Fapi%2Fv1%2Fbookcenter%2Fcover%2F1%2F1489988%2F1489988_1b3eb554cd92435f8b7d8dae9d3e17d3.jpg%2F","shortIntro":"小时候，父母出了意外，离开了我。 我被人收养，养父养母有个女儿 她每天都欺负我 直到有一天……","lastChapter":"第836章  赌约","retentionRatio":32.34,"banned":0,"allowMonthly":false,"latelyFollower":1198,"wordCount":2115316,"contentType":"txt","superscript":"","sizetype":-1,"highlight":{"title":["狗","带","吧","青","春"]}}

	],

	"女频" : [
	
	{"_id":"560ab0cfe11549717acb4e3b","hasCp":true,"title":"盛世荣华之寒门毒妃","aliases":"","cat":"女尊","author":"百里云初","site":"zhuishuvip","cover":"/agent/http%3A%2F%2Fimg.1391.com%2Fapi%2Fv1%2Fbookcenter%2Fcover%2F1%2F851414%2F_851414_740896.jpg%2F","shortIntro":"一朝穿越成寒门孤女，本想绝情弃爱，报仇雪恨，但不料事与愿违……温雅公子，腹有乾坤，却独独对她，腹黑心黑：“华溪烟，你赚钱养家，我貌美如花。疲乏劳累时，你我二人春风一度，也好更上一层楼……”","lastChapter":"正文 第644章 大结局","retentionRatio":50.06,"banned":0,"allowMonthly":true,"latelyFollower":12901,"wordCount":2276411,"contentType":"txt","superscript":"","sizetype":-1,"highlight":{"title":["盛","华"]}},

	{"_id":"5a9761ac5314e93f28cab822","hasCp":true,"title":"似锦","aliases":"","cat":"古代言情","author":"冬天的柳叶","site":"zhuishuvip","cover":"/agent/http%3A%2F%2Fimg.1391.com%2Fapi%2Fv1%2Fbookcenter%2Fcover%2F1%2F2243207%2F2243207_4b29de3468b24f1790620fce1aea03bc.jpg%2F","shortIntro":"人都说姜家四姑娘是一等一的美人儿，可惜被安国公府摘走了这朵鲜花。然而姜似出嫁前夕，未婚夫与别的女人跳湖殉情了。。。。","lastChapter":"第680章 蛤蟆嘴，我来了","retentionRatio":65.92,"banned":0,"allowMonthly":false,"latelyFollower":15478,"wordCount":1527273,"contentType":"txt","superscript":"","sizetype":-1,"highlight":{"title":["似","锦"]}},


	{"_id":"5b10c1638cfa350100959f94","hasCp":true,"title":"女战神的黑包群","aliases":"","cat":"科幻","author":"二谦","site":"zhuishuvip","cover":"/agent/http%3A%2F%2Fimg.1391.com%2Fapi%2Fv1%2Fbookcenter%2Fcover%2F1%2F3312659%2F3312659_985cc5bcceaf40c195e63a3e478f95ff.jpg%2F","shortIntro":"星际第一女战神东姝，\n某天突然加入一个黑包群！\n女战神一脸懵逼，顺手一戳！\n恭喜你抢到饥荒年代*1。\n下一秒，\n东姝出现在1976年的大西北……\n东姝：我，我靠？","lastChapter":"第994章 杀夫正道47","retentionRatio":63.41,"banned":0,"allowMonthly":false,"latelyFollower":1117,"wordCount":2312970,"contentType":"txt","superscript":"","sizetype":-1,"highlight":{"title":["女","战","神","的","黑","包","群"]}},

	{"_id":"583011ba771130ed756b9d07","hasCp":true,"title":"女帝直播攻略","aliases":"","cat":"女尊","author":"油爆香菇","site":"zhuishuvip","cover":"/agent/http%3A%2F%2Fimg.1391.com%2Fapi%2Fv1%2Fbookcenter%2Fcover%2F1%2F1245471%2F1245471_0c69180ffab14668bfdfa6528b503a0e.jpg%2F","shortIntro":"五国纷乱，天下共逐。河间有女横空出世，一扫群雄，登基为帝，还天下河清海晏。世人只知女帝彪悍，却不知逐鹿天下的初衷，仅仅是因为她不想宫斗。姜芃姬：“我警告你系统，再撺掇我去宫斗，信不信我摁死个皇帝给你看！”宫斗直播系统：“宝宝心里苦啊QAQ”#女帝进化日记##女神在古代直播如何当皇帝##这个直播间挂羊头卖狗肉，说好的宫斗直播呢？","lastChapter":"正文卷 1839：大结局（四）","retentionRatio":71.36,"banned":0,"allowMonthly":false,"latelyFollower":3788,"wordCount":4088572,"contentType":"txt","superscript":"","sizetype":-1,"highlight":{"title":["女","帝","直","播","攻","略"]}},

	{"_id":"5a50da1f9a1e31bf5a649d95","hasCp":true,"title":"乘鸾","aliases":"","cat":"古代言情","author":"云芨","site":"zhuishuvip","cover":"/agent/http%3A%2F%2Fimg.1391.com%2Fapi%2Fv1%2Fbookcenter%2Fcover%2F1%2F2225628%2F2225628_82917273fa55462e97c6439ddafb6a36.jpg%2F","shortIntro":"天下玄士之首，方为命师。\n七十年后的命师明微，为救师父回到永嘉十八年。\n从此，这个世界的玄门就没规矩了……\n诸君：阁下何不乘风起，扶摇直上九万里。\n明微：正有此意。","lastChapter":"712章 话本","retentionRatio":67.96,"banned":0,"allowMonthly":false,"latelyFollower":817,"wordCount":1521760,"contentType":"txt","superscript":"","sizetype":-1,"highlight":{"title":["乘","鸾"]}},

	{"_id":"5b89d2c84a7512ac44252286","hasCp":true,"title":"第一侯","aliases":"","cat":"古代言情","author":"希行","site":"zhuishuvip","cover":"/agent/http%3A%2F%2Fimg.1391.com%2Fapi%2Fv1%2Fbookcenter%2Fcover%2F1%2F3312630%2F3312630_64eba861a90d49beb58dcbf1dd1d4ece.jpg%2F","shortIntro":"惨死重生十年前的李明楼\n并没有有仇报仇有冤报冤的喜悦\n要想当人，她只能先当鬼","lastChapter":"第六十六章 此时与彼时","retentionRatio":61.57,"banned":0,"allowMonthly":false,"latelyFollower":1094,"wordCount":432453,"contentType":"txt","superscript":"","sizetype":-1,"highlight":{"title":["第","一","侯"]}},

	{"_id":"569f533e2cdbfc4473bee8f2","hasCp":true,"title":"君九龄","aliases":"","cat":"古代言情","author":"希行","site":"zhuishuvip","cover":"/agent/http%3A%2F%2Fimg.1391.com%2Fapi%2Fv1%2Fbookcenter%2Fcover%2F1%2F882203%2F882203_0ec7334e795a4a1d866d7e0fe7bcc379.jpg%2F","shortIntro":"太康三年冬，阳城北留镇宁家来了一个上门认亲的女孩子　　被拒婚之后，女孩子决定吊死在宁氏家门前以明志　　当死了的女孩子再次睁开眼　　很多人的命运就此翻天覆地","lastChapter":"第790章   以后的以后","retentionRatio":null,"banned":0,"allowMonthly":false,"latelyFollower":259,"wordCount":2002254,"contentType":"txt","superscript":"","sizetype":-1,"highlight":{"title":["君","九","龄"]}},

	{"_id":"5a6e868c322c645c534755aa","hasCp":true,"title":"师父又掉线了","aliases":"","cat":"武侠仙侠","author":"尤前","site":"zhuishuvip","cover":"/agent/http%3A%2F%2Fimg.1391.com%2Fapi%2Fv1%2Fbookcenter%2Fcover%2F1%2F2238871%2F2238871_6bc7ecde28084a0c984a2cbd5d1b61ed.jpg%2F","shortIntro":"人人都说羿清是世间第一剑修，剑术修为无人能出其左右。无论是在下界修仙之时，还是在上界的十方天庭，向来战无不胜。羿清一笑道：“那是因为，你们不识得我师父，说起修为，我远不及她。想当初上仙界十方天帝，我师父揍过九个，另一个是我。”“师父？你居然有师父！谁？怎么从来没听过。”“我师父是……咦？师父！师父？我师父呢？有谁看到我师父了？”旁边一人默默的举起爪，“我在这！”-_-|||穿越后沈萤唯一的烦恼就是……存在感太低！","lastChapter":"VIP卷 第六百三九章 变异灵田","retentionRatio":52.75,"banned":0,"allowMonthly":false,"latelyFollower":4768,"wordCount":1463022,"contentType":"txt","superscript":"","sizetype":-1,"highlight":{"title":["师","父","又","掉","线","了"]}},

	{"_id":"5482ae9d43b50dc414637f6e","hasCp":true,"title":"末日乐园","aliases":"","cat":"科幻","author":"须尾俱全","site":"zhuishuvip","cover":"/agent/http%3A%2F%2Fimg.1391.com%2Fapi%2Fv1%2Fbookcenter%2Fcover%2F1%2F58658%2F58658_965140ad822d4ad7826293991b8e1d79.jpg%2F","shortIntro":"“我觉得……我男朋友好像想杀掉我。”\r\n　　林三酒喃喃地说道。\r\n　　想起自己多金帅气又温柔的男友，她不禁浑身打了个冷战。\r\n　　由身边人亲手拉开帷幕的末日地狱，\r\n　　正向她呼啸而来。\r\n　　——————","lastChapter":"Lava！！ 1162","retentionRatio":43.64,"banned":0,"allowMonthly":false,"latelyFollower":1095,"wordCount":3716739,"contentType":"txt","superscript":"","sizetype":-1,"highlight":{"title":["末","日","乐","园"]}},

	{"_id":"5b10e5e5e9d064665b31f628","hasCp":true,"title":"香爱","aliases":"","cat":"现代言情","author":"飘荡墨尔本","site":"zhuishuvip","cover":"/agent/http%3A%2F%2Fimg.1391.com%2Fapi%2Fv1%2Fbookcenter%2Fcover%2F1%2F2409526%2F2409526_60db1b8e4ccf41e4bf0801c3df8de9f4.jpg%2F","shortIntro":"如果，那个帅得让人看一眼就想要“犯罪”的男生已然出现，唯一正确的操作就只剩下——往死里追！","lastChapter":"关于梦想的小九九","retentionRatio":32.8,"banned":0,"allowMonthly":false,"latelyFollower":995,"wordCount":895203,"contentType":"txt","superscript":"","sizetype":-1,"highlight":{"title":["香","爱"]}},

	{"_id":"53e3917acccb6bb6229cb8e5","hasCp":true,"title":"蒋四小姐","aliases":"","cat":"古代言情","author":"包子才有馅","site":"zhuishuvip","cover":"/agent/http%3A%2F%2Fimg.1391.com%2Fapi%2Fv1%2Fbookcenter%2Fcover%2F1%2F240975%2F_240975_613761.jpg%2F","shortIntro":"生平的理想是混吃等死.    却不知——    前有,打不过就跑的亲祖父;    后有,深藏不露的亲老爹;    左有,心偏到太平洋的亲祖母;    右有,随时想抢她嫡女身份的庶妹子;    四小姐说:要不搭个戏台吧,咱别的本事没有,演戏是一流!","lastChapter":"番外五：杜天翔篇（终）","retentionRatio":33.91,"banned":0,"allowMonthly":false,"latelyFollower":880,"wordCount":1657413,"contentType":"txt","superscript":"","sizetype":-1,"highlight":{"title":["蒋","四","小","姐"]}},

	{"_id":"5625dad4f2e3a29c0a901c00","hasCp":true,"title":"锦绣民国","aliases":"","cat":"现代言情","author":"15端木景晨","site":"zhuishuvip","cover":"/agent/http%3A%2F%2Fimg.1391.com%2Fapi%2Fv1%2Fbookcenter%2Fcover%2F1%2F719263%2F_719263_853440.jpg%2F","shortIntro":"二十二世纪的女将军重生为民国时期的内宅小姐……生于保守派家庭，自小养在深闺，没有留洋、不懂时髦是她的标签。却嫁了显赫的督军为继室。笑我土？还笑我土？再笑我土！非要逼得我忍无可忍告诉你们，我是来自二百年后吗？","lastChapter":"番外三：章子莫（3）","retentionRatio":30.57,"banned":0,"allowMonthly":false,"latelyFollower":610,"wordCount":903355,"contentType":"txt","superscript":"","sizetype":-1,"highlight":{"title":["锦","绣","民","国"]}},

	{"_id":"5af14e3c487cf455c21ffbfe","hasCp":true,"title":"保卫国师大人","aliases":"","cat":"玄幻奇幻","author":"风行水云间","site":"zhuishuvip","cover":"/agent/http%3A%2F%2Fimg.1391.com%2Fapi%2Fv1%2Fbookcenter%2Fcover%2F1%2F2313056%2F2313056_d30af0d665254b399c6f5f84163ebe14.jpg%2F","shortIntro":"如果他们也有朋友圈——大魔王：强弩灰飞烟灭，这天下终究如我所愿。[千里江山图.jpg]冯妙君：日常任务“阻挠冤家称霸天下“完成(1/1)，今天又愉快地活下来了呢^0^明天也要继续加油保住冤家的小命，维他命就是保我命。","lastChapter":"第539章 离别","retentionRatio":31.75,"banned":0,"allowMonthly":false,"latelyFollower":910,"wordCount":1144484,"contentType":"txt","superscript":"","sizetype":-1,"highlight":{"title":["保","卫","国","师","大","人"]}},

	{"_id":"5a2620b7ddb5b5061db2f946","hasCp":true,"title":"快穿：我只想种田","aliases":"","cat":"科幻","author":"沧澜止戈","site":"zhuishuvip","cover":"/agent/http%3A%2F%2Fimg.1391.com%2Fapi%2Fv1%2Fbookcenter%2Fcover%2F1%2F2225578%2F2225578_2fec04371b624e4a9319e43966e351f6.jpg%2F","shortIntro":"未来凄惨，仙佛出品超级高冷艳不靠谱系统绑定，任务一个比一个变态，食人魔，杀人狂魔，割脸狂人，豪门诡计、盗墓冒险、末世危机等等都不是事儿，秦鱼：因为我有神技之戏精上身。\r\n娇娇：问题是你的修炼大道不该是种田。\r\n秦鱼：过度而已，何况种田哪里不好了。\r\n娇娇：你听说过谁种田成仙的吗？\r\n秦鱼：没有？\r\n娇娇：有，土地公跟土地婆。\r\n秦鱼：......\r\n其实还有一个名号挺好听，叫做——仙之雇佣军，俗称正邪仙魔东西方大战之战场炮灰。\r\n ","lastChapter":"第766章 恶化 （再通知一遍，明天别等哦。）","retentionRatio":55.38,"banned":0,"allowMonthly":false,"latelyFollower":1340,"wordCount":1821220,"contentType":"txt","superscript":"","sizetype":-1,"highlight":{"title":["快","穿","：","我","只","想","种","田"]}},

	{"_id":"5acf6b432c12f1f235aed23f","hasCp":true,"title":"前方高能","aliases":"","cat":"现代言情","author":"莞尔wr","site":"zhuishuvip","cover":"/agent/http%3A%2F%2Fimg.1391.com%2Fapi%2Fv1%2Fbookcenter%2Fcover%2F1%2F2324132%2F2324132_2fec2ba5d7cf4cc6a308382f0918b295.jpg%2F","shortIntro":"这里有最危险的任务，有最丰厚的报酬。\n下一秒可能是生命的终结、可能是不能回头的深渊，也有可能最后成为神，站在众生的顶端！","lastChapter":"第二百九十四章 隐患","retentionRatio":37.56,"banned":0,"allowMonthly":false,"latelyFollower":2033,"wordCount":785869,"contentType":"txt","superscript":"","sizetype":-1,"highlight":{"title":["前","方","高","能"]}},

	{"_id":"5afa99b81fd4425b6ce3c64c","hasCp":true,"title":"颤抖吧，渣爹","aliases":"","cat":"古代言情","author":"舞夜夭","site":"zhuishuvip","cover":"/agent/http%3A%2F%2Fimg.1391.com%2Fapi%2Fv1%2Fbookcenter%2Fcover%2F1%2F2326825%2F2326825_b41ff821dd7046d9b87afaf0ef01b91e.jpg%2F","shortIntro":"长女说：“我要做最骄傲的嫡女大小姐，揽尽天下风光和尊荣，渣爹必须虐！”次女说：“我要岁月静好，带母和离，助兄成龙，远离渣爹！”三女说：“走别人的路，让别人无路可走，渣爹必须死！”女主说：“莫非只有我觉得渣爹有点冤？！”渣爹哭：“我觉得自己还可以再挽救一下！”男主说：“小爷天生赢家，专治各种不服，专业宠妻，嫁我准没错。”总结：每个女儿都不简单，就问渣爹你怕不怕？！食用指南：高甜高宠文，欢乐倾向，有苏有雷。","lastChapter":"第430章 放妾","retentionRatio":66.51,"banned":0,"allowMonthly":false,"latelyFollower":744,"wordCount":942933,"contentType":"txt","superscript":"","sizetype":-1,"highlight":{"title":["颤","抖","吧","，","渣","爹"]}},

	{"_id":"574b01a12710ba533f96d9ed","hasCp":true,"title":"嫡福","aliases":"","cat":"古代言情","author":"晓风清露","site":"zhuishuvip","cover":"/agent/http%3A%2F%2Fimg.1391.com%2Fapi%2Fv1%2Fbookcenter%2Fcover%2F1%2F915660%2F915660_263f3474df104931ac929ff628c47b85.jpg%2F","shortIntro":"被妹妹和丈夫设计，毁家灭门，赔上一双儿女，林芷萱死不瞑目。如果重活一次，她绝不会再死心塌地地维护那个所谓的妹妹。如果重活一次，她再也不想遇见那个道貌岸然的废物男人。一梦醒来，她重生回出嫁年纪，满家姐姐妹妹们都在寻觅良缘，独有她躲躲闪闪。却不想，躲过了那些渣货，竟等到了她的金玉良缘。嫡女有福，她撑起家门兴衰。贤夫萌子，看好运滚滚而来。","lastChapter":"第964章 想念","retentionRatio":31.25,"banned":0,"allowMonthly":false,"latelyFollower":848,"wordCount":2425173,"contentType":"txt","superscript":"","sizetype":-1,"highlight":{"title":["嫡","福"]}},

	{"_id":"58e55d90ec61644d5cf0e491","hasCp":true,"title":"我就是如此娇花","aliases":"","cat":"古代言情","author":"月下无美人","site":"zhuishuvip","cover":"/agent/http%3A%2F%2Fimg.1391.com%2Fapi%2Fv1%2Fbookcenter%2Fcover%2F1%2F2019733%2F2019733_12a7d044299c4d428eabdc044f150f7e.jpg%2F","shortIntro":"全京城的人都知道，冯家二爷选婿的标准严苛到令人发指。\n个矮的不要，体胖的不要，家有恶戚的不要，身无功名的不要，文武不双全的不要，姐姐妹妹太多的不要……\n好不容易来个合适的，又嫌人家长得太好，怀疑人家有断袖龙阳之好。\n冯乔捂额：好不容易重生一回，还能不能让人收拾贱人的同时，愉快的谈场恋爱？\n--------\n冯二爷：每天都有想要叼走我家闺女的狼崽子出现，不开心→_→。\n狼崽子：每天都要和未来岳父斗智斗勇，心好累←_←。","lastChapter":"第1008章 番外萧金钰 ","retentionRatio":52.79,"banned":0,"allowMonthly":false,"latelyFollower":548,"wordCount":2279886,"contentType":"txt","superscript":"","sizetype":-1,"highlight":{"title":["我","就","是","如","此","娇","花"]}},

	{"_id":"5b84ce1feda9ef605d366e31","hasCp":true,"title":"裙上之臣","aliases":"","cat":"古代言情","author":"青铜穗","site":"zhuishuvip","cover":"/agent/http%3A%2F%2Fimg.1391.com%2Fapi%2Fv1%2Fbookcenter%2Fcover%2F1%2F3315735%2F3315735_0ead05235d794548a5c2b83cef38715d.jpg%2F","shortIntro":"杜渐逢人便说自己已有妻室，一副贞洁烈夫的模样。\n长缨对此嗤之以鼻，她满脑子只想着建功晋职，带领她的拥趸们跟随未来的某皇子走上人生颠峰，谁会有那份闲工夫觑觎他？","lastChapter":"第196章 他的存在如影随形","retentionRatio":35,"banned":0,"allowMonthly":false,"latelyFollower":1017,"wordCount":435557,"contentType":"txt","superscript":"","sizetype":-1,"highlight":{"title":["裙","上","之","臣"]}},

	{"_id":"58c80c7f882c1f62026fbee0","hasCp":true,"title":"大帝姬","aliases":"","cat":"古代言情","author":"希行","site":"zhuishuvip","cover":"/agent/http%3A%2F%2Fimg.1391.com%2Fapi%2Fv1%2Fbookcenter%2Fcover%2F1%2F1477507%2F1477507_435a71b160a949058c87017b652b692c.jpg%2F","shortIntro":"穿越的薛青发现自己女扮男装在骗婚。不仅如此她还有一个更大的骗局。--------这是一个有很多秘密的人的故事","lastChapter":"第594章   尾声","retentionRatio":41.85,"banned":0,"allowMonthly":false,"latelyFollower":497,"wordCount":1870381,"contentType":"txt","superscript":"","sizetype":-1,"highlight":{"title":["大","帝","姬"]}},

	{"_id":"583079826ea21eec5daa88ff","hasCp":true,"title":"韶光慢","aliases":"","cat":"古代言情","author":"冬天的柳叶","site":"zhuishuvip","cover":"/agent/http%3A%2F%2Fimg.1391.com%2Fapi%2Fv1%2Fbookcenter%2Fcover%2F1%2F1367009%2F1367009_7251d52cbc3042888653fa72d87d1d86.jpg%2F","shortIntro":"乔昭嫁给了京城一等一的贵公子，可惜连个洞房都没捞着，夫婿就奉旨出征了。再相见，她被夫君大人一箭射死在城墙上，一睁眼成了骑着毛驴的被拐少女，绞尽脑汁琢磨着怎么回到京城去。","lastChapter":"第835章 番外10 顺心如意","retentionRatio":null,"banned":0,"allowMonthly":false,"latelyFollower":241,"wordCount":1775832,"contentType":"txt","superscript":"","sizetype":-1,"highlight":{"title":["韶","光","慢"]}},

	{"_id":"5b6d23633fa299532186c026","hasCp":true,"title":"将门凤华","aliases":"","cat":"古代言情","author":"饭团桃子控","site":"zhuishuvip","cover":"/agent/http%3A%2F%2Fimg.1391.com%2Fapi%2Fv1%2Fbookcenter%2Fcover%2F1%2F2965772%2F2965772_92347d166b3846f2a7fed62b740ce759.jpg%2F","shortIntro":"作为第一奸臣的女儿，闵惟秀一辈子都在劝自己的父亲做一个好人，结局好不凄惨。重生一世，她只想一斤牛肉三碗酒，老娘瞪狗狗都抖。小王爷发现了一个大问题，人都说他未婚妻乃是开封府第一细腰，病娇美人走一步喘三喘，可这位女壮士，你怎么在倒拔垂杨柳？！","lastChapter":"第二百二十九章 飞仙簪（一）","retentionRatio":null,"banned":0,"allowMonthly":false,"latelyFollower":59,"wordCount":522437,"contentType":"txt","superscript":"","sizetype":-1,"highlight":{"title":["将","门","凤","华"]}}

	]


}

