{
  "data" : {
    "nodes" : [
      {
        "bookType" : "1加4",
        "exposureType" : 0,
        "rotateNum" : 0,
        "sex" : "none",
        "_id" : "a26f5b28edbd46aaaacc46acf81bded1",
        "title" : "顶部banner",
        "books" : [

        ],
        "order" : 0,
        "alias" : "dbbn2",
        "icon" : "",
        "created" : "2018-06-15T11:12:08.483Z",
        "sellType" : "无",
        "secondTitle" : null,
        "showDataType" : "人气",
        "endTime" : 0,
        "rotateDetail" : 0
      },
      {
        "bookType" : "3列表",
        "exposureType" : 2,
        "rotateNum" : 0,
        "sex" : "none",
        "_id" : "21d9f9d94e7e420f982b4db38082118c",
        "title" : "女频热推",
        "books" : [
        {"_id":"560ab0cfe11549717acb4e3b","hasCp":true,"title":"盛世荣华之寒门毒妃","aliases":"","cat":"女尊","author":"百里云初","site":"zhuishuvip","cover":"/agent/http%3A%2F%2Fimg.1391.com%2Fapi%2Fv1%2Fbookcenter%2Fcover%2F1%2F851414%2F_851414_740896.jpg%2F","shortIntro":"一朝穿越成寒门孤女，本想绝情弃爱，报仇雪恨，但不料事与愿违……温雅公子，腹有乾坤，却独独对她，腹黑心黑：“华溪烟，你赚钱养家，我貌美如花。疲乏劳累时，你我二人春风一度，也好更上一层楼……”","lastChapter":"正文 第644章 大结局","retentionRatio":50.06,"banned":0,"allowMonthly":true,"latelyFollower":13860,"wordCount":2276411,"contentType":"txt","superscript":"","sizetype":-1,"highlight":{"title":["盛","华"]}},
        {"_id":"5ab0c7f26223c87b54ae9110","hasCp":true,"title":"恃君宠","aliases":"","cat":"古代言情","author":"十七年柊","site":"zhuishuvip","cover":"/agent/http%3A%2F%2Fimg.1391.com%2Fapi%2Fv1%2Fbookcenter%2Fcover%2F1%2F2253425%2F2253425_3d694c744f8a4a97869e4edb9ee98bcb.jpg%2F","shortIntro":"娘是重生的，爹是穿越的，表姐是玛丽苏，庶妹是白莲花，行行行，你们都是主角~林嘉若觉得既然她身边都是能人，随便抱条大腿这辈子就不用愁了，可怎么就抱错了呢？","lastChapter":"第545章 没有清白","retentionRatio":30.08,"banned":0,"allowMonthly":false,"latelyFollower":956,"wordCount":1208359,"contentType":"txt","superscript":"","sizetype":-1,"highlight":{"title":["恃","君","宠"]}},
            {"_id":"5a9761ac5314e93f28cab822","hasCp":true,"title":"似锦","aliases":"","cat":"古代言情","author":"冬天的柳叶","site":"zhuishuvip","cover":"/agent/http%3A%2F%2Fimg.1391.com%2Fapi%2Fv1%2Fbookcenter%2Fcover%2F1%2F2243207%2F2243207_4b29de3468b24f1790620fce1aea03bc.jpg%2F","shortIntro":"人都说姜家四姑娘是一等一的美人儿，可惜被安国公府摘走了这朵鲜花。然而姜似出嫁前夕，未婚夫与别的女人跳湖殉情了。。。。","lastChapter":"第648章 荒唐的请求","retentionRatio":66.08,"banned":0,"allowMonthly":false,"latelyFollower":15478,"wordCount":1460086,"contentType":"txt","superscript":"","sizetype":-1,"highlight":{"title":["似","锦"]}},
        {"_id":"5b10c1638cfa350100959f94","hasCp":true,"title":"女战神的黑包群","aliases":"","cat":"科幻","author":"二谦","site":"zhuishuvip","cover":"/agent/http%3A%2F%2Fimg.1391.com%2Fapi%2Fv1%2Fbookcenter%2Fcover%2F1%2F3312659%2F3312659_985cc5bcceaf40c195e63a3e478f95ff.jpg%2F","shortIntro":"星际第一女战神东姝，\n某天突然加入一个黑包群！\n女战神一脸懵逼，顺手一戳！\n恭喜你抢到饥荒年代*1。\n下一秒，\n东姝出现在1976年的大西北……\n东姝：我，我靠？","lastChapter":"第858章 原始部落2","retentionRatio":62.96,"banned":0,"allowMonthly":false,"latelyFollower":906,"wordCount":2010788,"contentType":"txt","superscript":"","sizetype":-1,"highlight":{"title":["女","战","神","的","黑","包","群"]}},
        {"_id":"5af14e3c487cf455c21ffbfe","hasCp":true,"title":"保卫国师大人","aliases":"","cat":"玄幻奇幻","author":"风行水云间","site":"zhuishuvip","cover":"/agent/http%3A%2F%2Fimg.1391.com%2Fapi%2Fv1%2Fbookcenter%2Fcover%2F1%2F2313056%2F2313056_d30af0d665254b399c6f5f84163ebe14.jpg%2F","shortIntro":"如果他们也有朋友圈——大魔王：强弩灰飞烟灭，这天下终究如我所愿。[千里江山图.jpg]冯妙君：日常任务“阻挠冤家称霸天下“完成(1/1)，今天又愉快地活下来了呢^0^明天也要继续加油保住冤家的小命，维他命就是保我命。","lastChapter":"第514章 包你满意","retentionRatio":31.75,"banned":0,"allowMonthly":false,"latelyFollower":910,"wordCount":1097592,"contentType":"txt","superscript":"","sizetype":-1,"highlight":{"title":["保","卫","国","师","大","人"]}},
        {"_id":"5a50da1f9a1e31bf5a649d95","hasCp":true,"title":"乘鸾","aliases":"","cat":"古代言情","author":"云芨","site":"zhuishuvip","cover":"/agent/http%3A%2F%2Fimg.1391.com%2Fapi%2Fv1%2Fbookcenter%2Fcover%2F1%2F2225628%2F2225628_82917273fa55462e97c6439ddafb6a36.jpg%2F","shortIntro":"天下玄士之首，方为命师。\n七十年后的命师明微，为救师父回到永嘉十八年。\n从此，这个世界的玄门就没规矩了……\n诸君：阁下何不乘风起，扶摇直上九万里。\n明微：正有此意。","lastChapter":"644章 陷害","retentionRatio":67.45,"banned":0,"allowMonthly":false,"latelyFollower":916,"wordCount":1464826,"contentType":"txt","superscript":"","sizetype":-1,"highlight":{"title":["乘","鸾"]}},
        {"_id":"5482ae9d43b50dc414637f6e","hasCp":true,"title":"末日乐园","aliases":"","cat":"科幻","author":"须尾俱全","site":"zhuishuvip","cover":"/agent/http%3A%2F%2Fimg.1391.com%2Fapi%2Fv1%2Fbookcenter%2Fcover%2F1%2F58658%2F58658_965140ad822d4ad7826293991b8e1d79.jpg%2F","shortIntro":"“我觉得……我男朋友好像想杀掉我。”\r\n　　林三酒喃喃地说道。\r\n　　想起自己多金帅气又温柔的男友，她不禁浑身打了个冷战。\r\n　　由身边人亲手拉开帷幕的末日地狱，\r\n　　正向她呼啸而来。\r\n　　——————","lastChapter":"Lava！！ 1152","retentionRatio":41.97,"banned":0,"allowMonthly":false,"latelyFollower":1316,"wordCount":3679092,"contentType":"txt","superscript":"","sizetype":-1,"highlight":{"title":["末","日","乐","园"]}},
        {"_id":"5a2620b7ddb5b5061db2f946","hasCp":true,"title":"快穿：我只想种田","aliases":"","cat":"科幻","author":"沧澜止戈","site":"zhuishuvip","cover":"/agent/http%3A%2F%2Fimg.1391.com%2Fapi%2Fv1%2Fbookcenter%2Fcover%2F1%2F2225578%2F2225578_2fec04371b624e4a9319e43966e351f6.jpg%2F","shortIntro":"未来凄惨，仙佛出品超级高冷艳不靠谱系统绑定，任务一个比一个变态，食人魔，杀人狂魔，割脸狂人，豪门诡计、盗墓冒险、末世危机等等都不是事儿，秦鱼：因为我有神技之戏精上身。\r\n娇娇：问题是你的修炼大道不该是种田。\r\n秦鱼：过度而已，何况种田哪里不好了。\r\n娇娇：你听说过谁种田成仙的吗？\r\n秦鱼：没有？\r\n娇娇：有，土地公跟土地婆。\r\n秦鱼：......\r\n其实还有一个名号挺好听，叫做——仙之雇佣军，俗称正邪仙魔东西方大战之战场炮灰。\r\n ","lastChapter":"第733章 红烧肉（二更来了，多写了几百字，本来还想切一下的。）","retentionRatio":62.96,"banned":0,"allowMonthly":false,"latelyFollower":1561,"wordCount":1745290,"contentType":"txt","superscript":"","sizetype":-1,"highlight":{"title":["快","穿","：","我","只","想","种","田"]}},
        {"_id":"5af175f74f008d5618365812","hasCp":true,"title":"欢喜记事","aliases":"","cat":"古代言情","author":"木嬴","site":"zhuishuvip","cover":"/agent/http%3A%2F%2Fimg.1391.com%2Fapi%2Fv1%2Fbookcenter%2Fcover%2F1%2F2314277%2F2314277_d9e4ac730b8149dfa734663b1a9447a3.jpg%2F","shortIntro":"穿越到刚刚招安封侯的土匪一家。亲爹，威武勇猛爱闯祸。亲娘，貌美如花爱爱闯祸。亲哥，英俊潇洒爱爱爱闯祸。……你问她啊？她就比较懂事了，刚刚从街上抢回来一压宅夫君…… ","lastChapter":"正文卷 第五百九十二章 假如","retentionRatio":68.05,"banned":0,"allowMonthly":false,"latelyFollower":3698,"wordCount":1411295,"contentType":"txt","superscript":"","sizetype":-1,"highlight":{"title":["欢","喜","记","事"]}},
        {"_id":"57790be71e22232d287adcbf","hasCp":true,"title":"你好，少将大人","aliases":"","cat":"现代言情","author":"寒武记","site":"zhuishuvip","cover":"/agent/http%3A%2F%2Fimg.1391.com%2Fapi%2Fv1%2Fbookcenter%2Fcover%2F1%2F1187811%2F1187811_d2d079aa3e38416b81c5d3975fa7671e.jpg%2F","shortIntro":"又一次被扑倒吃干抹净的顾念之愤愤不平地控诉：“你们男人都一个德行！只关注女人的外在！肤浅！”“这是污蔑。”冷漠禁欲的少将大人眉目森严，一本正经，说出的话却很欠揍：“我明明最关心的是你的内在，就是你衣裳里面……”顾念之：“！！！” ","lastChapter":"第十七卷 第2079章 谁更着急（第二更求月票）","retentionRatio":63.25,"banned":0,"allowMonthly":false,"latelyFollower":1217,"wordCount":6409848,"contentType":"txt","superscript":"","sizetype":-1,"highlight":{"title":["你","好","，","少","将","大","人"]}},
        {"_id":"5b89d2c84a7512ac44252286","hasCp":true,"title":"第一侯","aliases":"","cat":"古代言情","author":"希行","site":"zhuishuvip","cover":"/agent/http%3A%2F%2Fimg.1391.com%2Fapi%2Fv1%2Fbookcenter%2Fcover%2F1%2F3312630%2F3312630_64eba861a90d49beb58dcbf1dd1d4ece.jpg%2F","shortIntro":"惨死重生十年前的李明楼\n并没有有仇报仇有冤报冤的喜悦\n要想当人，她只能先当鬼","lastChapter":"第五十章 丈夫的心意","retentionRatio":64.67,"banned":0,"allowMonthly":false,"latelyFollower":1094,"wordCount":387805,"contentType":"txt","superscript":"","sizetype":-1,"highlight":{"title":["第","一","侯"]}},
        {"_id":"5afa99b81fd4425b6ce3c64c","hasCp":true,"title":"颤抖吧，渣爹","aliases":"","cat":"古代言情","author":"舞夜夭","site":"zhuishuvip","cover":"/agent/http%3A%2F%2Fimg.1391.com%2Fapi%2Fv1%2Fbookcenter%2Fcover%2F1%2F2326825%2F2326825_b41ff821dd7046d9b87afaf0ef01b91e.jpg%2F","shortIntro":"长女说：“我要做最骄傲的嫡女大小姐，揽尽天下风光和尊荣，渣爹必须虐！”次女说：“我要岁月静好，带母和离，助兄成龙，远离渣爹！”三女说：“走别人的路，让别人无路可走，渣爹必须死！”女主说：“莫非只有我觉得渣爹有点冤？！”渣爹哭：“我觉得自己还可以再挽救一下！”男主说：“小爷天生赢家，专治各种不服，专业宠妻，嫁我准没错。”总结：每个女儿都不简单，就问渣爹你怕不怕？！食用指南：高甜高宠文，欢乐倾向，有苏有雷。","lastChapter":"第403章 奢望","retentionRatio":30.19,"banned":0,"allowMonthly":false,"latelyFollower":744,"wordCount":885649,"contentType":"txt","superscript":"","sizetype":-1,"highlight":{"title":["颤","抖","吧","，","渣","爹"]}},
        {"_id":"5a6e868c322c645c534755aa","hasCp":true,"title":"师父又掉线了","aliases":"","cat":"武侠仙侠","author":"尤前","site":"zhuishuvip","cover":"/agent/http%3A%2F%2Fimg.1391.com%2Fapi%2Fv1%2Fbookcenter%2Fcover%2F1%2F2238871%2F2238871_6bc7ecde28084a0c984a2cbd5d1b61ed.jpg%2F","shortIntro":"人人都说羿清是世间第一剑修，剑术修为无人能出其左右。无论是在下界修仙之时，还是在上界的十方天庭，向来战无不胜。羿清一笑道：“那是因为，你们不识得我师父，说起修为，我远不及她。想当初上仙界十方天帝，我师父揍过九个，另一个是我。”“师父？你居然有师父！谁？怎么从来没听过。”“我师父是……咦？师父！师父？我师父呢？有谁看到我师父了？”旁边一人默默的举起爪，“我在这！”-_-|||穿越后沈萤唯一的烦恼就是……存在感太低！","lastChapter":"VIP卷 第六百二十章 冥府之门","retentionRatio":53.12,"banned":0,"allowMonthly":false,"latelyFollower":7080,"wordCount":1423842,"contentType":"txt","superscript":"","sizetype":-1,"highlight":{"title":["师","父","又","掉","线","了"]}},
        {"_id":"583011ba771130ed756b9d07","hasCp":true,"title":"女帝直播攻略","aliases":"","cat":"女尊","author":"油爆香菇","site":"zhuishuvip","cover":"/agent/http%3A%2F%2Fimg.1391.com%2Fapi%2Fv1%2Fbookcenter%2Fcover%2F1%2F1245471%2F1245471_0c69180ffab14668bfdfa6528b503a0e.jpg%2F","shortIntro":"五国纷乱，天下共逐。河间有女横空出世，一扫群雄，登基为帝，还天下河清海晏。世人只知女帝彪悍，却不知逐鹿天下的初衷，仅仅是因为她不想宫斗。姜芃姬：“我警告你系统，再撺掇我去宫斗，信不信我摁死个皇帝给你看！”宫斗直播系统：“宝宝心里苦啊QAQ”#女帝进化日记##女神在古代直播如何当皇帝##这个直播间挂羊头卖狗肉，说好的宫斗直播呢？","lastChapter":"正文卷 1824：丰真的说客rap（下）","retentionRatio":71.33,"banned":0,"allowMonthly":false,"latelyFollower":4129,"wordCount":4046294,"contentType":"txt","superscript":"","sizetype":-1,"highlight":{"title":["女","帝","直","播","攻","略"]}},
        {"_id":"54c1f8878dd1d8b76be7b0da","hasCp":true,"title":"我家徒弟又挂了","aliases":"","cat":"玄幻奇幻","author":"尤前","site":"zhuishuvip","cover":"/agent/http%3A%2F%2Fimg.1391.com%2Fapi%2Fv1%2Fbookcenter%2Fcover%2F1%2F44329%2F44329_955e2281a0124749acaadb851d21637c.jpg%2F","shortIntro":"被称为修仙界第一人的玉言尊上,等了一万六千年,终于收到了一个徒弟,细心教导,认真呵护.    看着她渐渐领悟,慢慢强大,眼看要一飞冲天的时候……她挂了!    于是他又收了一徒弟,细心教导,认真呵护,然后……她又挂了!    于于是他再收了一个徒弟,接着……她还是挂了!    玉言:……    徒弟:……    (为什么每次重生,都会被同一个人捡回去啊,摔~~~~)                                                                                         被称为修仙界第一人的玉言尊上,等了一万六千年,终于收到了一个徒弟,细心教...                                                 一块石头引发的血案七级大魔法师从魔法大陆穿越未来地球异能!体术!小菜一碟...","lastChapter":"第393章 最后的最后","retentionRatio":42.9,"banned":0,"allowMonthly":false,"latelyFollower":5223,"wordCount":1313489,"contentType":"txt","superscript":"","sizetype":-1,"highlight":{"title":["我","家","徒","弟","又","挂","了"]}},
        {"_id":"5b1e3d7061c5a840c91ea84f","hasCp":true,"title":"九零学霸小军医","aliases":"","cat":"现代言情","author":"自在观","site":"zhuishuvip","cover":"/agent/http%3A%2F%2Fimg.1391.com%2Fapi%2Fv1%2Fbookcenter%2Fcover%2F1%2F2405607%2F2405607_e13179a1864a48628a11137bf54a78b4.jpg%2F","shortIntro":"前夫和双胞胎的妹妹害死女儿，李少瑾把她们全杀了，大仇得报，可是吧唧吧唧嘴，还是很遗憾赶赴刑场，因为那个偏心的妈妈还活着。倏然睁开眼，李少瑾又回到高考前夕，这时候她还没有被逼婚，李莹雪也没有代替她达到人生的巅峰。李少瑾摸摸嘴，最关键可以虐妈了。某营长小狼狗：“李医生，请帮我打针。”李少瑾：“不会。”小狼狗营长：“李医生，请帮我开西药。”李少瑾：“没有。”小狼狗营长：“既不会打针，也不会开药，你当什么医生啊？”李少瑾怒吼：“我是中医，我是中医，我是中医。”","lastChapter":"第697章 祝你们新婚快乐，嘿嘿嘿！","retentionRatio":31.09,"banned":0,"allowMonthly":false,"latelyFollower":775,"wordCount":1540559,"contentType":"txt","superscript":"","sizetype":-1,"highlight":{"title":["九","零","学","霸","小","军","医"]}},
        {"_id":"5a6620b85a3ff83b701d33a5","hasCp":true,"title":"嘉平关纪事","aliases":"","cat":"古代言情","author":"浩烨乐","site":"zhuishuvip","cover":"/agent/http%3A%2F%2Fimg.1391.com%2Fapi%2Fv1%2Fbookcenter%2Fcover%2F1%2F2243153%2F2243153_a32f5994d4814d37b5b52450380fc230_default_cover.png%2F","shortIntro":"一场尘封十年的旧事，让嘉平关城笼罩在阴霾之下，家国之情、兄弟之谊、恋人之爱该如何取舍，面对家国安危，众人的命运又该何去何从......","lastChapter":"337 蠢","retentionRatio":34.78,"banned":0,"allowMonthly":false,"latelyFollower":505,"wordCount":1095465,"contentType":"txt","superscript":"","sizetype":-1,"highlight":{"title":["嘉","平","关","纪","事"]}},
        {"_id":"546c3538e09d79005bc44b60","hasCp":true,"title":"一世倾城","aliases":"","cat":"玄幻奇幻","author":"苏小暖","site":"zhuishuvip","cover":"/agent/http%3A%2F%2Fimg.1391.com%2Fapi%2Fv1%2Fbookcenter%2Fcover%2F1%2F42127%2F42127_f23f08d9dd1942c8923cedd192425a22.jpg%2F","shortIntro":"原书名《邪王追妻：废材逆天小姐》\r\n\r\n她，21世纪金牌杀手，却穿为苏府最无用的废柴四小姐身上。他，帝国晋王殿下，冷酷邪魅强势霸道，天赋卓绝。世人皆知她是草包废材，任意欺压凌辱，唯独他慧眼识珠对她强势霸道纠缠誓死不放手。且看他们如何强者与强者碰撞，上演一出追逐与被追逐的好戏。","lastChapter":"青龙帝国 第10828章 送送送2","retentionRatio":68.15,"banned":0,"allowMonthly":false,"latelyFollower":14344,"wordCount":11054943,"contentType":"txt","superscript":"","sizetype":-1,"highlight":{"title":["一","世","倾","城"]}},
        {"_id":"5b0285891e8500bd6f97dcbc","hasCp":true,"title":"六宫凤华","aliases":"","cat":"古代言情","author":"寻找失落的爱情","site":"zhuishuvip","cover":"/agent/http%3A%2F%2Fimg.1391.com%2Fapi%2Fv1%2Fbookcenter%2Fcover%2F1%2F2339172%2F2339172_e468904c3b5140b9888abdea54d6c9ed.jpg%2F","shortIntro":"狠辣无情的谢贵妃，熬死所有仇人，在八十岁时寿终正寝含笑九泉。不料一睁眼，竟回到了纯真善良的十岁稚龄。仇人再一次出现在眼前……算了，还是让他们再死一回吧！","lastChapter":"棋逢对手 第四百九十六章 结业（一）","retentionRatio":67.59,"banned":0,"allowMonthly":false,"latelyFollower":2272,"wordCount":1072425,"contentType":"txt","superscript":"","sizetype":-1,"highlight":{"title":["六","宫","凤","华"]}},
        {"_id":"5ab9d8f4ce88777b51df45c2","hasCp":true,"title":"时光和你都很美","aliases":"","cat":"现代言情","author":"叶非夜","site":"zhuishuvip","cover":"/agent/http%3A%2F%2Fimg.1391.com%2Fapi%2Fv1%2Fbookcenter%2Fcover%2F1%2F2259361%2F2259361_0ad97e42d80748d18bf52717d76f8a7d.jpg%2F","shortIntro":"林嘉歌为了娶到时瑶，用尽所有的方法都没能成功，最后将目光放在了小包子的身上。小包子听完林嘉歌的提议，和他勾了勾手指，软萌萌的回：“合作愉快！”于是——小包子收到机器人的当晚，把时瑶骗到餐厅，偷偷对林嘉歌说：“爹地，妈咪陪你吃饭。”小包子收到奥特曼的当晚，把时瑶骗到游泳馆，偷偷对林嘉歌说：“爹地，妈咪陪你游泳。”小包子收到小火车的当晚，把时瑶骗到酒店套房，给了林嘉歌一把避孕套，偷偷的凑到林嘉歌耳边说：“爹地，妈咪给你睡。”","lastChapter":"幸会啊，我爱的女孩 12月说再见啦～","retentionRatio":72.86,"banned":0,"allowMonthly":false,"latelyFollower":7405,"wordCount":1213047,"contentType":"txt","superscript":"","sizetype":-1,"highlight":{"title":["时","光","和","你","都","很","美"]}},
        {"_id":"59560cb103f1b121636456b1","hasCp":true,"title":"神医凰后","aliases":"","cat":"古代言情","author":"苏小暖","site":"zhuishuvip","cover":"/agent/http%3A%2F%2Fimg.1391.com%2Fapi%2Fv1%2Fbookcenter%2Fcover%2F1%2F2045755%2F2045755_7a7a750f61f64703977e72cca5c8dc90.jpg%2F","shortIntro":"她，21世纪王牌特工，被家族遗弃的天才少女；\r\n他，傲娇腹黑帝国太子，一怒天下变的至高王者；\r\n她扮猪吃虎坑他、虐他、刺激他、每次撩完就跑。\r\n是个男人就忍不了！\r\n他只能猎捕她，宠溺她，诱惑她为他倾心，谁知先动心的人却变成了他。\r\n——\r\n君临天下的少年，凤舞江山的少女，一场棋逢对手，势均力敌的爱情追逐游戏。","lastChapter":"第六卷 第2112章 回朝2","retentionRatio":49.25,"banned":0,"allowMonthly":false,"latelyFollower":13259,"wordCount":2323195,"contentType":"txt","superscript":"","sizetype":-1,"highlight":{"aliases":["神","医","凰","后"],"title":["神","医","凰","后"]}},
        {"_id":"546c3538e09d79005bc44b60","hasCp":true,"title":"一世倾城","aliases":"","cat":"玄幻奇幻","author":"苏小暖","site":"zhuishuvip","cover":"/agent/http%3A%2F%2Fimg.1391.com%2Fapi%2Fv1%2Fbookcenter%2Fcover%2F1%2F42127%2F42127_f23f08d9dd1942c8923cedd192425a22.jpg%2F","shortIntro":"原书名《邪王追妻：废材逆天小姐》\r\n\r\n她，21世纪金牌杀手，却穿为苏府最无用的废柴四小姐身上。他，帝国晋王殿下，冷酷邪魅强势霸道，天赋卓绝。世人皆知她是草包废材，任意欺压凌辱，唯独他慧眼识珠对她强势霸道纠缠誓死不放手。且看他们如何强者与强者碰撞，上演一出追逐与被追逐的好戏。","lastChapter":"青龙帝国 第10826章 未出生的儿子2","retentionRatio":67.84,"banned":0,"allowMonthly":false,"latelyFollower":14329,"wordCount":11050608,"contentType":"txt","superscript":"","sizetype":-1,"highlight":{"title":["一","世","倾","城"]}},
        {"_id":"599256eac63ef77f013b6b57","hasCp":true,"title":"恰似寒光遇骄阳","aliases":"","cat":"现代言情","author":"囧囧有妖","site":"zhuishuvip","cover":"/agent/http%3A%2F%2Fimg.1391.com%2Fapi%2Fv1%2Fbookcenter%2Fcover%2F1%2F84550%2F84550_d9200ccb1ab0488ea8a1697143f5bba5.jpg%2F","shortIntro":"“这家伙，口味是有多重，这都下得去口？” 一觉醒来，她看着镜子里的自己， 爆炸头血腥纹身脸化得像鬼，多看一秒都辣眼睛。 重生前，她另有所爱，一心逃离，与他发生关系后对他恨之入骨。 重生后，她瞄了眼床上的美色，严肃思考，这事后留下阴影的，貌似应该是他？ 上一世脑子被门夹了放着绝色老公不要，被渣男贱女所害，被最信任的闺密洗脑，落了个众叛亲离的下场。 这一世，任各路牛鬼蛇神处心积虑巴不得她离婚让位，不好意思，本小姐智商上线了！","lastChapter":"2 第1916章 两段记忆","retentionRatio":52.84,"banned":0,"allowMonthly":false,"latelyFollower":19787,"wordCount":2125914,"contentType":"txt","superscript":"","sizetype":-1,"highlight":{"title":["恰","似","寒","光","遇","骄","阳"]}},
        {"_id":"59b7aaf34c7545be340999c0","hasCp":true,"title":"毒妃在上","aliases":"","cat":"古代言情","author":"穆丹枫","site":"zhuishuvip","cover":"/agent/http%3A%2F%2Fimg.1391.com%2Fapi%2Fv1%2Fbookcenter%2Fcover%2F1%2F2609838%2F2609838_8b4deeba76554477a88c0778be0fd276.jpg%2F","shortIntro":"帅哥，江湖救急！借你衣服穿穿！”某女剥光正修炼某邪王，然后逍遥跑路。\n　　某邪王清醒之后咬牙：搜！给我掘地三尺也要把她搜出来！　　\n　　他是这个大陆众生膜拜的圣尊，神秘，高贵，不可攀。。\n　　她现代杀手之王，对他的评价是：妖孽，变态，神棍。\n　　她避他如蛇蝎，他缠她如缠藤。\n　　她腹黑狠辣，无情无爱，虐渣虐白莲，快意恩仇，被世人称为妖女魔物。\n他却将她放在心尖尖上，不容任何人轻辱，他说辱我者尚可原谅，辱她者杀无赦！","lastChapter":"忠诚5","retentionRatio":32.43,"banned":0,"allowMonthly":false,"latelyFollower":888,"wordCount":3082860,"contentType":"txt","superscript":"","sizetype":-1,"highlight":{"title":["毒","妃","在","上"]}},
        {"_id":"5a925b30fc12969005845a06","hasCp":true,"title":"开挂人生之修真界的假仙","aliases":"","cat":"玄幻奇幻","author":"圈地养膘","site":"zhuishuvip","cover":"/agent/http%3A%2F%2Fimg.1391.com%2Fapi%2Fv1%2Fbookcenter%2Fcover%2F1%2F2324097%2F2324097_7ad3e2f87491438c9bb72548ed4a04aa.jpg%2F","shortIntro":"说到“开挂人生”这四个字，这似乎是专门为暖暖发明的一样。\n“为了回家，为了修行，为了看看远方的风景，为了寻找失落的远古，也为了看看牵挂的你们，我踏上轮回的旅行，从不停歇。”\n标签:金大腿粗到没朋友、不苏只爽、无男主、轮回转世、长篇、逗比。","lastChapter":"第599章大结局（正文完）","retentionRatio":31.15,"banned":0,"allowMonthly":false,"latelyFollower":689,"wordCount":1303281,"contentType":"txt","superscript":"","sizetype":-1,"highlight":{"title":["开","挂","人","生","之","修","真","界","的","假","仙"]}},
        {"_id":"5a81b5b656ad742457b2bf6e","hasCp":true,"title":"仙三代的日常生活","aliases":"","cat":"玄幻奇幻","author":"感觉挺冷","site":"zhuishuvip","cover":"/agent/http%3A%2F%2Fimg.1391.com%2Fapi%2Fv1%2Fbookcenter%2Fcover%2F1%2F2276386%2F2276386_f4c5323aeaba4879803bf146b4240d99.jpg%2F","shortIntro":"据说，身穿可能会变黑户，听说，魂穿的有可能是夺舍，所以还是胎穿是正解？\n冷悠然，一个现代宅女，被出生在风云大陆第一宗门之中……\n外公是一宗之主，爹妈俱全，还有个便宜哥哥，妥妥的仙三代啊～\n其实冷悠然想说，长大还是挺不容易的。\n出生第一天就状况频发，被无良爹妈选择性遗忘。\n从此有了一个狐狸奶妈。\nK.O.掉的第一朵小白花是自己保姆。\n身边还有一打喜好奇葩，气场强大的宗门长辈。\n冷悠然表示，其实她只是想安静的宅着修修仙而已呀。","lastChapter":"第98章 音攻","retentionRatio":32.16,"banned":0,"allowMonthly":false,"latelyFollower":514,"wordCount":1443630,"contentType":"txt","superscript":"","sizetype":-1,"highlight":{"title":["仙","三","代","的","日","常","生","活"]}},
        {"_id":"5abcfe572c12f1f235aeb6e4","hasCp":true,"title":"青云上仙","aliases":"","cat":"武侠仙侠","author":"方洄","site":"zhuishuvip","cover":"/agent/http%3A%2F%2Fimg.1391.com%2Fapi%2Fv1%2Fbookcenter%2Fcover%2F1%2F2324584%2F2324584_b153c855d27c490aba97e942de7f0d2a.jpg%2F","shortIntro":"青辞被穿越了。\n只不过一场重伤，醒来她就从小女孩变成了一条刚破壳的小青蛇；\n等她费劲爬回去时，发现肉身已经另有魂魄，回不去了。\n天路昭昭，哪怕被穿越变成了蛇，她也同样要飞升九天！","lastChapter":"第535章 再度失控","retentionRatio":33.46,"banned":0,"allowMonthly":false,"latelyFollower":709,"wordCount":1141459,"contentType":"txt","superscript":"","sizetype":-1,"highlight":{"title":["青","云","上","仙"]}},
        {"_id":"5a0a966d0c56c96c39263dbd","hasCp":false,"title":"神医弃女","aliases":"","cat":"玄幻言情","author":"MS芙子","site":"hongxiu","cover":"/agent/http://qidian.qpic.cn/qdbimg/349573/c_22102399000135202/180","shortIntro":"13岁的叶家傻女，一朝重生！ <br>坐拥万能神鼎，身怀灵植空间，她不再是人见人欺的废材弃女！ <br>药毒无双，神医也要靠边站；灵兽求契约，不好意思，兽神都喊...","lastChapter":"第4716章 帝莘之难","retentionRatio":34.88,"banned":6,"allowMonthly":false,"latelyFollower":709,"wordCount":10352900,"contentType":"txt","superscript":"","sizetype":-1,"highlight":{"title":["神","医","弃","女"]}},
        {"_id":"52adad2b834bd7c466023d9a","hasCp":true,"title":"镇魂","aliases":"","cat":"耽美","author":"priest","site":"zhuishuvip","cover":"/agent/http%3A%2F%2Fimg.1391.com%2Fapi%2Fv1%2Fbookcenter%2Fcover%2F1%2F84011%2F_84011_320357.jpg%2F","shortIntro":"简介： 如题，都市灵异故事温柔内敛美人攻vs暴躁精分……以及自以为攻的受。容易逆cp警报，请关注文案。","lastChapter":"镇魂灯 镇魂灯（终）","retentionRatio":30.38,"banned":6,"allowMonthly":false,"latelyFollower":1310,"wordCount":454700,"contentType":"txt","superscript":"","sizetype":-1,"highlight":{"title":["镇","魂"]}},{"_id":"595954930b9613c20398a0db","hasCp":true,"title":"镇魂街将","aliases":"","cat":"都市","author":"曲花葬","site":"zhuishuvip","cover":"/agent/http%3A%2F%2Fimg.1391.com%2Fapi%2Fv1%2Fbookcenter%2Fcover%2F1%2F2226724%2F2226724_8f97f55ab4ea40b786684ea98848102d.jpg%2F","shortIntro":"世间传说，世界有许多的镇魂街，每条街有一个镇魂街将。\n我所想写的，是另一条镇魂街，另一个自己创造的故事。\n“我乃恶鬼街镇魂将，周寒是也！杨戬何在？”\n“大王，杨戬在此，愿为大王扫平邪灵亡魂！”","lastChapter":"第十二章 天书世界","retentionRatio":33.24,"banned":0,"allowMonthly":true,"latelyFollower":251,"wordCount":25077,"contentType":"txt","superscript":"","sizetype":-1,"highlight":{"title":["镇","魂"]}}
        ],
        "order" : 1,
        "alias" : "nvprt",
        "icon" : "",
        "created" : "2018-11-01T11:21:43.363Z",
        "sellType" : "无",
        "secondTitle" : null,
        "showDataType" : "人气",
        "endTime" : 0,
        "rotateDetail" : 1
      },
      {
        "bookType" : "3列表",
        "exposureType" : 2,
        "rotateNum" : 0,
        "sex" : "none",
        "_id" : "3cd5801ee67d49af83b454d94bc431aa",
        "title" : "女频连载",
        "books" : [
        {"_id":"5482ae9d43b50dc414637f6e","hasCp":true,"title":"末日乐园","aliases":"","cat":"科幻","author":"须尾俱全","site":"zhuishuvip","cover":"/agent/http%3A%2F%2Fimg.1391.com%2Fapi%2Fv1%2Fbookcenter%2Fcover%2F1%2F58658%2F58658_965140ad822d4ad7826293991b8e1d79.jpg%2F","shortIntro":"“我觉得……我男朋友好像想杀掉我。”\r\n　　林三酒喃喃地说道。\r\n　　想起自己多金帅气又温柔的男友，她不禁浑身打了个冷战。\r\n　　由身边人亲手拉开帷幕的末日地狱，\r\n　　正向她呼啸而来。\r\n　　——————","lastChapter":"Lava！！ 1152","retentionRatio":41.97,"banned":0,"allowMonthly":false,"latelyFollower":1316,"wordCount":3679092,"contentType":"txt","superscript":"","sizetype":-1,"highlight":{"title":["末","日","乐","园"]}},
        {"_id":"5acf6b432c12f1f235aed23f","hasCp":true,"title":"前方高能","aliases":"","cat":"现代言情","author":"莞尔wr","site":"zhuishuvip","cover":"/agent/http%3A%2F%2Fimg.1391.com%2Fapi%2Fv1%2Fbookcenter%2Fcover%2F1%2F2324132%2F2324132_2fec2ba5d7cf4cc6a308382f0918b295.jpg%2F","shortIntro":"这里有最危险的任务，有最丰厚的报酬。\n下一秒可能是生命的终结、可能是不能回头的深渊，也有可能最后成为神，站在众生的顶端！","lastChapter":"第二百八十二章 离山","retentionRatio":34.47,"banned":0,"allowMonthly":false,"latelyFollower":1112,"wordCount":757064,"contentType":"txt","superscript":"","sizetype":-1,"highlight":{"title":["前","方","高","能"]}},
        {"_id":"59b25f1216e06861107f6813","hasCp":true,"title":"古代农家日常","aliases":"","cat":"古代言情","author":"坐酌泠泠水","site":"zhuishuvip","cover":"/agent/http%3A%2F%2Fimg.1391.com%2Fapi%2Fv1%2Fbookcenter%2Fcover%2F1%2F2185631%2F2185631_a397085c2c3540589895084303553ec2.jpg%2F","shortIntro":"有克父之名，被爷奶嫌弃，还是假“男丁”一枚，穿越而来的农学硕士杜锦宁表示不怕：\n先写话本，进学堂做个学霸，再来分家。改良稻种、循环养殖，打造园林，做个古代“袁隆平”也不错啊。\n某男：兄弟，我完了，我好像患上了断袖之症。\n杜锦宁：错！你那是眼瞎之疾。","lastChapter":"第843章 满朝皆知","retentionRatio":52.74,"banned":0,"allowMonthly":false,"latelyFollower":864,"wordCount":1896918,"contentType":"txt","superscript":"","sizetype":-1,"highlight":{"title":["古","代","农","家","日","常"]}},
        {"_id":"59438492585b9f72158bca73","hasCp":true,"title":"我家娘子已黑化","aliases":"","cat":"古代言情","author":"团子123","site":"zhuishuvip","cover":"/agent/http%3A%2F%2Fimg.1391.com%2Fapi%2Fv1%2Fbookcenter%2Fcover%2F1%2F2607865%2F2607865_9f9b6837bac143fd8aeb28d1dbbd9b6d.jpg%2F","shortIntro":"天官赐福的周言词上辈子在精神病院待够了，这辈子，只想放飞自我。\n谁拦，怼谁！\n娇弱女儿要逆袭，精分少女欢乐多。\n相公：娘子已黑化，夫君好怕怕！\n言词有病，已弃疗。\n您的镇宅小达人已携洪福齐天光环火辣上线。\n（此书有毒，慎入）","lastChapter":"第399章 囚禁在残废之躯","retentionRatio":65.03,"banned":0,"allowMonthly":false,"latelyFollower":1413,"wordCount":891395,"contentType":"txt","superscript":"","sizetype":-1,"highlight":{"author":["子"],"title":["我","家","娘","子","已","黑","化"]}},
        {"_id":"5922f8404e8af0fd4f50f541","hasCp":true,"title":"春闺密事","aliases":"","cat":"古代言情","author":"秦兮","site":"zhuishuvip","cover":"/agent/http%3A%2F%2Fimg.1391.com%2Fapi%2Fv1%2Fbookcenter%2Fcover%2F1%2F2044046%2F2044046_93af0fc831ae47eaa14c2c398cb779e8.jpg%2F","shortIntro":"握了一手好牌却打的稀烂的卫安死了，\n家破人亡又成了下堂妻，冗长的人生就像是个噩梦。\n好容易发飙一回把渣男贱女成堆炸翻，一转眼却又转回了闺阁弱女之时。\n娘家没倒爹娘还在，眼看着前头全是繁花锦秀，她下定决心要好好打牌，\n一念前程美似锦，一年高墙锁芳华，这一世她才是掌控命运的那只大手。\n才不打算陪着渣男贱女再浪费人生，可是重新活了才发现，\n自己自以为是的握有的一手好牌竟从不是属于自己的，\n是逆流直上还是仍旧安心当个炮灰，这是个问题。\n一个心机女重生想报恩却发现无恩可报，重新过日子的故事。","lastChapter":"第1289章 九十章·改观","retentionRatio":64.84,"banned":0,"allowMonthly":false,"latelyFollower":330,"wordCount":2745752,"contentType":"txt","superscript":"","sizetype":-1,"highlight":{"title":["春","闺","密","事"]}},
        {"_id":"5ad87f409c9cefc834b5bd9c","hasCp":true,"title":"天女有毒","aliases":"","cat":"武侠仙侠","author":"唐优优","site":"zhuishuvip","cover":"/agent/http%3A%2F%2Fimg.1391.com%2Fapi%2Fv1%2Fbookcenter%2Fcover%2F1%2F2607908%2F2607908_dbf2ac6412da42e4b432277a9feb3ec5.jpg%2F","shortIntro":"祝九洛转世归来，唯一念想：打进天宫，为孙猴子报仇。\n然而，坐镇天宫的一个是她爹，一个是她未过门的夫君。\n沧海又桑田，你当初执意要守护的是否依旧如初？\n完结书《替嫁太子妃》、《我的神君男友》欢迎试毒。","lastChapter":"第297章 原来是你","retentionRatio":31.57,"banned":0,"allowMonthly":false,"latelyFollower":991,"wordCount":367749,"contentType":"txt","superscript":"","sizetype":-1,"highlight":{"title":["天","女","有","毒"]}},
        {"_id":"59e971aeb0f1e4104874a87d","hasCp":true,"title":"天师上位记","aliases":"","cat":"古代言情","author":"漫漫步归","site":"zhuishuvip","cover":"/agent/http%3A%2F%2Fimg.1391.com%2Fapi%2Fv1%2Fbookcenter%2Fcover%2F1%2F2615291%2F2615291_cb721daa81b44e95a2e189e021d2223c.jpg%2F","shortIntro":"昭和元年，出得一十三位大天师的百年术士世族张家满门被灭；\n昭和元年，集万千宠爱于一身的青阳县主杖毙了一位出身平凡的普通少女；\n当死去的女孩再次睁眼，自此，天翻地覆！\n卫瑶卿一睁眼，就从张家的掌上明珠变成了一位因为未婚夫太过出色而被活活打死的平凡少女……","lastChapter":"第七百二十章 办法","retentionRatio":32.98,"banned":0,"allowMonthly":false,"latelyFollower":702,"wordCount":1716778,"contentType":"txt","superscript":"","sizetype":-1,"highlight":{"title":["天","师","上","位","记"]}},
        {"_id":"5a6ef640dd0b577a5b0b40c5","hasCp":true,"title":"重生八零甜蜜军婚","aliases":"","cat":"现代言情","author":"妞妞蜜","site":"zhuishuvip","cover":"/agent/http%3A%2F%2Fimg.1391.com%2Fapi%2Fv1%2Fbookcenter%2Fcover%2F1%2F2213531%2F2213531_bcbfbe984a1f4dff990b21c00aa35f19.jpg%2F","shortIntro":"【重生1v1军婚+女强+男强+爽甜宠文】重生前陈萌被冤死无全尸。重生后把武力智商值点满，真.叉腰.霸气萌表示，她要说打就打说干就干，逆天改命洗刷冤屈专治各种不服！渣渣们准备好开启人生地狱模式了吗？等会，渣渣怎么躺了一地！陈萌：╰_╯谁刷了我的怪！偏执兵哥淡定路过：打的事儿交给我，干的事儿也交给我陈萌：...好像哪儿不对？顶着个苦大仇深的人设却拿了个不甜不要小钱钱的剧本怎么破？","lastChapter":"第1538章 根治玻璃心","retentionRatio":52.09,"banned":0,"allowMonthly":false,"latelyFollower":408,"wordCount":1692631,"contentType":"txt","superscript":"","sizetype":-1,"highlight":{"author":["蜜"],"title":["重","生","八","零","甜","蜜","军","婚"]}},
        {"_id":"59f00871d442c265499b9682","hasCp":false,"title":"天师打脸攻略","aliases":"","cat":"其它","author":"蜗碎","site":"chuangshi","cover":"/agent/https://ccstatic-1252317822.file.myqcloud.com/bookcoverimg/2017-10-21/default_59eb5fc52ca06.png","shortIntro":"从出生那一刻起，就注定了姜昭悲剧的一生。 重活一世，再次面对那群环伺身边的恶狼，她才发现，它们也不过如此而已。 开灵眼、断阴阳、立天地，姜昭的天师之路，从打脸开...","lastChapter":"第860章 对峙 新","retentionRatio":32.11,"banned":6,"allowMonthly":false,"latelyFollower":837,"wordCount":1756234,"contentType":"txt","superscript":"","sizetype":-1,"highlight":{"title":["天","师","打","脸","攻","略"]}},
        {"_id":"5912dc46d8a532a214f8c909","hasCp":true,"title":"丧尸不修仙","aliases":"","cat":"古代言情","author":"彩虹鱼","site":"zhuishuvip","cover":"/agent/http%3A%2F%2Fimg.1391.com%2Fapi%2Fv1%2Fbookcenter%2Fcover%2F1%2F1518240%2F1518240_fb8226c54cbc46c7a375fbb82112a40f.jpg%2F","shortIntro":"不过是随便钻了个缝儿，险些没晶核爆掉。不过是吃了个草，就被幼崽缠上。敌人倒下一茬又一茬，夜溪好忧伤，不过是串了个门儿…当该存在的与不该出现的，碰撞一起电火花，即便无法修仙，女王依然能非主流称霸。","lastChapter":"第1221章 请还债吧（二更）","retentionRatio":59.73,"banned":0,"allowMonthly":false,"latelyFollower":719,"wordCount":3032348,"contentType":"txt","superscript":"","sizetype":-1,"highlight":{"title":["丧","尸","不","修","仙"]}},
        {"_id":"56a0fb54fecdb9c4025a7744","hasCp":true,"title":"极品飞仙","aliases":"","cat":"仙侠","author":"金铃动","site":"zhuishuvip","cover":"/agent/http%3A%2F%2Fimg.1391.com%2Fapi%2Fv1%2Fbookcenter%2Fcover%2F1%2F869810%2F869810_b41af9c4eead44dba058e34c1df059c0.jpg%2F","shortIntro":"仙与魔的永恒争斗，琴与剑的绝世情缘，这是一个宏大而瑰丽的仙侠世界，一对少男少女踏上修仙路……","lastChapter":"第二季：大陆起风云 第1717章 不敌","retentionRatio":58.19,"banned":0,"allowMonthly":false,"latelyFollower":9343,"wordCount":6240430,"contentType":"txt","superscript":"","sizetype":-1,"highlight":{"title":["极","品","飞","仙"]}},
        {"_id":"5913acdd2fa26bff35bd213f","hasCp":true,"title":"她的左眼能见鬼","aliases":"","cat":"悬疑灵异","author":"蜀椒","site":"zhuishuvip","cover":"/agent/http%3A%2F%2Fimg.1391.com%2Fapi%2Fv1%2Fbookcenter%2Fcover%2F1%2F1518385%2F1518385_d79ae55fe7bd428285a2f052af3b10b8.jpg%2F","shortIntro":"大难不死的素辛醒来后发现自己左眼能看见鬼。","lastChapter":"第1263章 搞事？来啊","retentionRatio":30.41,"banned":0,"allowMonthly":false,"latelyFollower":863,"wordCount":2818960,"contentType":"txt","superscript":"","sizetype":-1,"highlight":{"title":["她","的","左","眼","能","见","鬼"]}},
        {"_id":"59ed53321f4b92e8798e941e","hasCp":true,"title":"威武不能娶","aliases":"","cat":"古代言情","author":"玖拾陆","site":"zhuishuvip","cover":"/agent/http%3A%2F%2Fimg.1391.com%2Fapi%2Fv1%2Fbookcenter%2Fcover%2F1%2F2225519%2F2225519_24b73cfa78a942d6a7d66a55ff4d577d.jpg%2F","shortIntro":"前世，将门出身的顾云锦一心慕书香，哪怕把自己拧成了蕙质兰心、温柔贤淑的款儿，还是别庄病故的命。\n    再睁眼，一切从头来，从拳头来。\n    顾云锦：去她的读书人，姑娘我要用拳头说话！\n    众人：姑娘威武，无人敢娶。\n    蒋慕渊：我敢！","lastChapter":"第六百二十一章 虎子回来了","retentionRatio":55.54,"banned":0,"allowMonthly":false,"latelyFollower":9782,"wordCount":1383818,"contentType":"txt","superscript":"","sizetype":-1,"highlight":{"title":["威","武","不","能","娶"]}},
        {"_id":"59e08878f7b149af591d4340","hasCp":true,"title":"末世养娃手札","aliases":"","cat":"科幻","author":"包包紫","site":"zhuishuvip","cover":"/agent/http%3A%2F%2Fimg.1391.com%2Fapi%2Fv1%2Fbookcenter%2Fcover%2F1%2F2281451%2F2281451_04e8f21a35da4d1f8d9abc311c21ed6c.jpg%2F","shortIntro":"末世来临，无逆天异能无空间无老公的宝妈安然，只有一只嗷嗷待哺的包子要养，还有一个只能催生花花草草的木系技能。人家抢物资杀丧尸，将末世玩儿的风生水起。她杀丧尸只为了抢奶粉，抢辅食，抢玩具，将好好儿一个末世，过成了前有丧尸堵路，后有前夫追赶的灰头土脸的带娃日子。前夫：“我们离婚7个月，这孩子足月出生，你还不承认这是我的种？”安然失控的大叫：“这我婚内出轨生的，不行啊？”前夫：“你那出轨对象，莫非是我孪生兄弟？不然这孩子鼻子眼睛嘴巴，怎么长得跟我一模一样？”","lastChapter":"第1333章 番外.《她的影子》20","retentionRatio":32.73,"banned":0,"allowMonthly":false,"latelyFollower":507,"wordCount":1425345,"contentType":"txt","superscript":"","sizetype":-1,"highlight":{"title":["末","世","养","娃","手","札"]}},
        {"_id":"5a0ffaa5b5bc4ccd4f7dfe35","hasCp":true,"title":"军夫请自重","aliases":"","cat":"现代言情","author":"婔姿珏然","site":"zhuishuvip","cover":"/agent/http%3A%2F%2Fimg.1391.com%2Fapi%2Fv1%2Fbookcenter%2Fcover%2F1%2F2269711%2F2269711_9b489d6f5a844647b331240a8e212e20.jpg%2F","shortIntro":"重活一世，栾宜玥只想要摆脱头婚，好好养活她的包子们，挽补前世所有错轨的遗憾和悔恨——然而，那个跟狗皮药膏一样的前夫，你是要闹哪样？军长果断脸、铿锵有力：你是我合法的妻子。嗤~你、我早就已经事实离婚了！军长阴着脸、表示不服：放屁，谁敢跟老子抢老婆？老婆、你过来，咱们好好说道说道，谁离婚了？军婚是不、许、离的！！！ps：本文架空，每个节点的骤变，就是架空一个小世界。时间仿近现代1993年，本文依旧是略带玄幻，主线言情，副线…妙口直断。另、甜宠虐渣文、男女双重生，男主精神领域、女主灵池空间，双视角 ","lastChapter":"第909章 栾寗晞说什么你都信","retentionRatio":34.4,"banned":0,"allowMonthly":false,"latelyFollower":536,"wordCount":1969581,"contentType":"txt","superscript":"","sizetype":-1,"highlight":{"title":["军","夫","请","自","重"]}},
        {"_id":"5a0d6e48b22b8ead08e2eb42","hasCp":true,"title":"归朝","aliases":"","cat":"古代言情","author":"姚颖怡","site":"zhuishuvip","cover":"/agent/http%3A%2F%2Fimg.1391.com%2Fapi%2Fv1%2Fbookcenter%2Fcover%2F1%2F2615309%2F2615309_cb081ebdc2fe4dfe87413d476bf70dd2.jpg%2F","shortIntro":"归去来兮，已是百年身，母亲和她用鲜血染成的历史，都已不复存在。\n霍九：小爷我雌雄莫辨，可却腰缠万贯，翻云覆雨我来，冲锋陷阵你去。嗨，那少年，我说的就是你了！","lastChapter":"第六四七章 小姑娘","retentionRatio":30.94,"banned":0,"allowMonthly":false,"latelyFollower":593,"wordCount":1423793,"contentType":"txt","superscript":"","sizetype":-1,"highlight":{"title":["归","朝"]}},
        {"_id":"5a65eba47ef4a30c764cb70e","hasCp":true,"title":"出闺阁记","aliases":"","cat":"古代言情","author":"姚霁珊","site":"zhuishuvip","cover":"/agent/http%3A%2F%2Fimg.1391.com%2Fapi%2Fv1%2Fbookcenter%2Fcover%2F1%2F2243202%2F2243202_f05db3317160487ab76ba3eaaa5a2350.jpg%2F","shortIntro":"陈滢的第一次穿越，以失败告终。再度穿越后，她发现自己莫名多出了一段记忆。手握从天而降的金手指，陈滢表示，我是来破案的，宅斗就算了吧。这是一个穿越女为了理想而奋（zuo）斗（si）的故事，本文有CP哦。","lastChapter":"第662章 你有钱吗？","retentionRatio":null,"banned":0,"allowMonthly":false,"latelyFollower":650,"wordCount":1451797,"contentType":"txt","superscript":"","sizetype":-1,"highlight":{"title":["出","闺","阁","记"]}},
        {"_id":"59bce93993ed92684927279b","hasCp":true,"title":"末世之温瑶","aliases":"","cat":"科幻","author":"冬虫夏菀","site":"zhuishuvip","cover":"/agent/http%3A%2F%2Fimg.1391.com%2Fapi%2Fv1%2Fbookcenter%2Fcover%2F1%2F2185658%2F2185658_fbde252752c0489e91f3729ff4cddc85.jpg%2F","shortIntro":"末世来临，可来自魔法大陆的温瑶却不能使用魔法怎么办？\r\n没事，水系异能也可以很强大～\r\n不过……\r\n爸爸是大BOSS，哥哥是小BOSS，妈妈也深藏不漏，温瑶开启了和家人大杀四方的故事模式……\r\n——\r\n作者是个单身狗，所以木有男主……","lastChapter":"第708章 黑色虫群","retentionRatio":34.65,"banned":0,"allowMonthly":false,"latelyFollower":970,"wordCount":1594978,"contentType":"txt","superscript":"","sizetype":-1,"highlight":{"title":["末","世","之","温","瑶"]}},
        {"_id":"599256eac63ef77f013b6b57","hasCp":true,"title":"恰似寒光遇骄阳","aliases":"","cat":"现代言情","author":"囧囧有妖","site":"zhuishuvip","cover":"/agent/http%3A%2F%2Fimg.1391.com%2Fapi%2Fv1%2Fbookcenter%2Fcover%2F1%2F84550%2F84550_d9200ccb1ab0488ea8a1697143f5bba5.jpg%2F","shortIntro":"“这家伙，口味是有多重，这都下得去口？” 一觉醒来，她看着镜子里的自己， 爆炸头血腥纹身脸化得像鬼，多看一秒都辣眼睛。 重生前，她另有所爱，一心逃离，与他发生关系后对他恨之入骨。 重生后，她瞄了眼床上的美色，严肃思考，这事后留下阴影的，貌似应该是他？ 上一世脑子被门夹了放着绝色老公不要，被渣男贱女所害，被最信任的闺密洗脑，落了个众叛亲离的下场。 这一世，任各路牛鬼蛇神处心积虑巴不得她离婚让位，不好意思，本小姐智商上线了！","lastChapter":"2 第1916章 两段记忆","retentionRatio":52.84,"banned":0,"allowMonthly":false,"latelyFollower":19787,"wordCount":2125914,"contentType":"txt","superscript":"","sizetype":-1,"highlight":{"title":["恰","似","寒","光","遇","骄","阳"]}},
        {"_id":"59a9a6d584521a72690188ae","hasCp":true,"title":"田园食香","aliases":"","cat":"古代言情","author":"恕恕","site":"zhuishuvip","cover":"/agent/http%3A%2F%2Fimg.1391.com%2Fapi%2Fv1%2Fbookcenter%2Fcover%2F1%2F2185587%2F2185587_958c2b72e0db4cf1a4d5355ead5c03e1.jpg%2F","shortIntro":"杜玉娘重生归来，发现自己回到了十二岁，悲惨的生活还没有开始，一切都还来得及。她想重新活一回，却发现，即便自己不再爱慕虚荣，渣男却依旧阴魂不散。难道她就摆脱不掉命运的轨迹了吗？\n她收起了无知和虚荣心，要将那些自以为是的人一个个的解决掉。\n这位壮士，你怎么来了？\n这是一个本土重生女，改变命运，寻得真爱的故事。","lastChapter":"第661章 ","retentionRatio":34.17,"banned":0,"allowMonthly":false,"latelyFollower":568,"wordCount":1800922,"contentType":"txt","superscript":"","sizetype":-1,"highlight":{"title":["田","园","食","香"]}},
        {"_id":"569d9c1a6b260f3e46721a7f","hasCp":true,"title":"豪门重生之妇贵逼人","aliases":"","cat":"现代言情","author":"恩很宅","site":"zhuishuvip","cover":"/agent/http%3A%2F%2Fimg.1391.com%2Fapi%2Fv1%2Fbookcenter%2Fcover%2F1%2F872174%2F872174_2570e1a1739b421782040988e6694dda.jpg%2F","shortIntro":"原本以为只是一场身体交易，却没想到赔上的是自己的一生。\r\n“不做情妇吗？那好，我正缺一位妻子。”\r\n一场豪门契约，无爱的婚姻，赤裸的交易。\r\n他是将她宠上天堂，又残忍打入地狱的恶魔。\r\n白天，她是羡煞所有女人楼氏集团少奶奶。\r\n一次精心设计的假死，她终于挣脱了恶魔的禁锢……\r\n\r\n二年后的相遇，她却再一次成为恶魔的猎物。\r\n“我玩腻了，我决定把你当成今晚的商品放在这个拍卖会上卖掉，你觉得如何？”温柔的样子跟方才岑冷残戾简直判若两人……\r\n二入豪门，她所不知的是，他要的代价，只是她的心……\r\n┉ ┉ ┉","lastChapter":"第1988章 第九十二 大结局（3）终结篇","retentionRatio":32.66,"banned":0,"allowMonthly":false,"latelyFollower":670,"wordCount":3750501,"contentType":"txt","superscript":"","sizetype":-1,"highlight":{"title":["妇","贵"]}},
        {"_id":"5a0309d3b2c5de6e09dc731c","hasCp":true,"title":"双生锦","aliases":"","cat":"古代言情","author":"天际舟","site":"zhuishuvip","cover":"/agent/http%3A%2F%2Fimg.1391.com%2Fapi%2Fv1%2Fbookcenter%2Fcover%2F1%2F2225542%2F2225542_072765e6870d460a8f53bc9333946e8f.jpg%2F","shortIntro":"都说女儿是父亲上辈子的情人，她便重生成了他的女儿。\n前世的债，容她还给他一个满门锦绣。\n未料到，前世手上沾过的血，变成了她灵魂中邪恶的另一半，成为她的一生之敌。\n将使命默默埋在心底，她背负着孤独感独自前行。\n有二十四孝老爹全方位呵护，有前世的权臣佞臣成为夫婿，弹指之间，极品奇葩灰飞烟灭！\n她终于得偿所愿，令群芳艳羡。","lastChapter":"第九百二十八章 长兄如父","retentionRatio":32.55,"banned":0,"allowMonthly":false,"latelyFollower":607,"wordCount":2061589,"contentType":"txt","superscript":"","sizetype":-1,"highlight":{"title":["双","生","锦"]}},
        {"_id":"5a45e8879542fc1ba70c1e93","hasCp":true,"title":"我和末世有个交易","aliases":"","cat":"科幻","author":"爱做梦的葡萄","site":"zhuishuvip","cover":"/agent/http%3A%2F%2Fimg.1391.com%2Fapi%2Fv1%2Fbookcenter%2Fcover%2F1%2F2201352%2F2201352_a246979f2d374386971c1203da5b983f.jpg%2F","shortIntro":"林芷意外绑定位面小店，能够和各种末世世界的人类进行交易。泡面换汽车，大米换黄金，甚至还有各种各样的神奇物品。更重要的是在这过程中，林芷收获了自己的爱情，一生幸福！","lastChapter":"第六百七十章：提高门槛","retentionRatio":32.93,"banned":0,"allowMonthly":false,"latelyFollower":660,"wordCount":1398534,"contentType":"txt","superscript":"","sizetype":-1,"highlight":{"title":["我","和","末","世","有","个","交","易"]}},
        {"_id":"5a973b2bbca8aa5f4e88bbbf","hasCp":true,"title":"仙声夺人","aliases":"","cat":"武侠仙侠","author":"午夜牧羊女","site":"zhuishuvip","cover":"/agent/http%3A%2F%2Fimg.1391.com%2Fapi%2Fv1%2Fbookcenter%2Fcover%2F1%2F2243062%2F2243062_580c919ca4f5413da9f88c7e4e549d46.jpg%2F","shortIntro":"魔道的息心尊主重生成一个小女娃娃，上辈子众叛亲离、人人喊打。这辈子她发誓一定不能坏在明处，即便让人抓到把柄，也要让所有人相信她是有苦衷的。\n排雷：1、男主大概没有，喜欢女主就好。\n            2、作者信笔开河，自我放飞了，不满意作者也不会改的，就酱紫！\n            3、女主她可能浑身都是戏，接受不了别硬抗！","lastChapter":"第652章 天意","retentionRatio":30.4,"banned":0,"allowMonthly":false,"latelyFollower":469,"wordCount":1498017,"contentType":"txt","superscript":"","sizetype":-1,"highlight":{"title":["仙","声","夺","人"]}},
        {"_id":"59ba5ab2b695ff1926a516b9","hasCp":true,"title":"疯妃传","aliases":"","cat":"古代言情","author":"金无彩","site":"zhuishuvip","cover":"/agent/http%3A%2F%2Fimg.1391.com%2Fapi%2Fv1%2Fbookcenter%2Fcover%2F1%2F2615286%2F2615286_75985e24e25d418bacc1cb8fe1e2310e.jpg%2F","shortIntro":"疯了两世的沈濯这一世真的不想再疯癫下去了。但岁月静好总是与她无缘。某王爷小心翼翼：我能陪着你一起疯么？沈濯一脚把他踹下水：前世今生两条命，你赔得起么？","lastChapter":"番外十：那一场风花雪月的事（二）","retentionRatio":33.06,"banned":0,"allowMonthly":false,"latelyFollower":717,"wordCount":1994110,"contentType":"txt","superscript":"","sizetype":-1,"highlight":{"title":["疯","妃","传"]}},
        {"_id":"583079826ea21eec5daa88ff","hasCp":true,"title":"韶光慢","aliases":"","cat":"古代言情","author":"冬天的柳叶","site":"zhuishuvip","cover":"/agent/http%3A%2F%2Fimg.1391.com%2Fapi%2Fv1%2Fbookcenter%2Fcover%2F1%2F1367009%2F1367009_7251d52cbc3042888653fa72d87d1d86.jpg%2F","shortIntro":"乔昭嫁给了京城一等一的贵公子，可惜连个洞房都没捞着，夫婿就奉旨出征了。再相见，她被夫君大人一箭射死在城墙上，一睁眼成了骑着毛驴的被拐少女，绞尽脑汁琢磨着怎么回到京城去。","lastChapter":"第835章 番外10 顺心如意","retentionRatio":51.79,"banned":0,"allowMonthly":false,"latelyFollower":366,"wordCount":1775832,"contentType":"txt","superscript":"","sizetype":-1,"highlight":{"title":["韶","光","慢"]}}
        ],
        "order" : 2,
        "alias" : "nvplz",
        "icon" : "",
        "created" : "2018-11-23T15:03:57.973Z",
        "sellType" : "无",
        "secondTitle" : null,
        "showDataType" : "字数",
        "endTime" : 0,
        "rotateDetail" : 1
      },
      {
        "bookType" : "3列表",
        "exposureType" : 2,
        "rotateNum" : 0,
        "sex" : "none",
        "_id" : "b3cc3b0608bc46cfbbdf82a1895dde43",
        "title" : "女频完本",
        "books" : [
        {"_id":"59fc170b10423fb65347d3cc","hasCp":true,"title":"娇宠小兽妃：冷血暴君，你好坏！","aliases":"","cat":"武侠仙侠","author":"澹台镜","site":"zhuishuvip","cover":"/agent/http%3A%2F%2Fimg.1391.com%2Fapi%2Fv1%2Fbookcenter%2Fcover%2F1%2F2615457%2F2615457_761518f7b3c64df7b512f833d44b29f5.jpg%2F","shortIntro":"新婚夜惨死丈夫和断袖胞弟之手，夜灵兮自爆却被卷入异时空，悲催的变成了一只小白兔，落于传说中冷血残暴的暴君之手，还弄脏了这个洁癖狂的衣服。\n“清蒸油煎红烧火烤？你想怎么死？”南宫少霆拎着小白兔的耳朵冷笑。\n夜灵兮果断放弃节操，上前就是一个么么哒，卖萌打滚求放过，“主人我错了，饶了我吧！”\n“放过你也可以，以后就给本王暖床吧。”南宫少霆一脸大发慈悲。\n夜灵兮大喜，这个容易！却没想到，她化形前他不近女色，她化形后，他夜夜如狼似虎要不停！\n“呜~说好的只是暖床呢？”“乖，很快就好了。”","lastChapter":"第1148章 最终章","retentionRatio":31.05,"banned":0,"allowMonthly":false,"latelyFollower":671,"wordCount":2587939,"contentType":"txt","superscript":"","sizetype":-1,"highlight":{"title":["娇","宠","小","兽","妃","：","冷","血","暴","君","，","你","好","坏","！"]}},
        {"_id":"58cc85658e0ec5081e8f2a20","hasCp":true,"title":"女帝问鼎娱乐圈","aliases":"","cat":"现代言情","author":"烟青色","site":"zhuishuvip","cover":"/agent/http%3A%2F%2Fimg.1391.com%2Fapi%2Fv1%2Fbookcenter%2Fcover%2F1%2F1495653%2F1495653_2acc0491c4194df286af6e8881fbae98.jpg%2F","shortIntro":"对于从后宫争斗中一路摸爬滚打成为女帝的聂瑶来说，娱乐圈那根本就不是事儿。从国民闺女、当红小花旦、金牌制片人，再到自己的娱乐帝国。聂瑶表示，就算换个地儿，她也是人生大赢家。只是这个坚定不移的黑粉，您能不能放过我？除了黑我，还要和我领证生娃？这转折是不是有点快！","lastChapter":"第961章 番外3","retentionRatio":null,"banned":0,"allowMonthly":false,"latelyFollower":184,"wordCount":2187661,"contentType":"txt","superscript":"","sizetype":-1,"highlight":{"title":["女","帝","问","鼎","娱","乐","圈"]}},
        {"_id":"59dd98e0f77bedc422efe3cf","hasCp":true,"title":"凶案侦缉","aliases":"","cat":"灵异","author":"莫伊莱","site":"zhuishuvip","cover":"/agent/http%3A%2F%2Fimg.1391.com%2Fapi%2Fv1%2Fbookcenter%2Fcover%2F1%2F2349703%2F2349703_ea0332dc2bc64b2590e6bb86884b30cb.jpg%2F","shortIntro":"法网恢恢疏而不漏，\n但是只要是网，\n就难免会有漏网之鱼，\n就像阳光照不到的阴暗角落里，\n总会有邪恶如细菌般滋生。\n正与邪，\n此消彼长，\n幻化出一幕幕人间悲喜剧。","lastChapter":"番外五 钟妈变形记（2）【番外终】","retentionRatio":30.3,"banned":0,"allowMonthly":false,"latelyFollower":987,"wordCount":1501891,"contentType":"txt","superscript":"","sizetype":-1,"highlight":{"title":["凶","案","侦","缉"]}},
        {"_id":"583031cf116108834a64663b","hasCp":true,"title":"秦楼春","aliases":"","cat":"古代言情","author":"Loeva","site":"zhuishuvip","cover":"/agent/http%3A%2F%2Fimg.1391.com%2Fapi%2Fv1%2Fbookcenter%2Fcover%2F1%2F1184571%2F1184571_0a24a8e1d8e94bdf958b819da93867c8.jpg%2F","shortIntro":"祖父母老迈，父母双亡，叔婶刻薄面对这狗血的杯具人生穿越来的秦含真唯一能做的就是努力让自己过得好一点没有条件，就去创造条件衣，食，住，行……还有男人和婚姻不过她发现自己好像努力得有点过头了……","lastChapter":"第1374章 迎春","retentionRatio":null,"banned":0,"allowMonthly":false,"latelyFollower":670,"wordCount":4625663,"contentType":"txt","superscript":"","sizetype":-1,"highlight":{"title":["秦","楼","春"]}},
        {"_id":"59fc89a151ac28a412ae3b93","hasCp":false,"title":"孔方世界","aliases":"","cat":"悬疑灵异","author":"荆棘之歌","site":"hongxiu","cover":"/agent/http://qidian.qpic.cn/qdbimg/349573/c_3990258303881503/180","shortIntro":"每次睡醒后的地图都不一样！！！ <br>老规矩无cp。","lastChapter":"大结局","retentionRatio":30.15,"banned":6,"allowMonthly":false,"latelyFollower":513,"wordCount":1204200,"contentType":"txt","superscript":"","sizetype":-1,"highlight":{"title":["孔","方","世","界"]}},
        {"_id":"58e55d90ec61644d5cf0e491","hasCp":true,"title":"我就是如此娇花","aliases":"","cat":"古代言情","author":"月下无美人","site":"zhuishuvip","cover":"/agent/http%3A%2F%2Fimg.1391.com%2Fapi%2Fv1%2Fbookcenter%2Fcover%2F1%2F2019733%2F2019733_12a7d044299c4d428eabdc044f150f7e.jpg%2F","shortIntro":"全京城的人都知道，冯家二爷选婿的标准严苛到令人发指。\n个矮的不要，体胖的不要，家有恶戚的不要，身无功名的不要，文武不双全的不要，姐姐妹妹太多的不要……\n好不容易来个合适的，又嫌人家长得太好，怀疑人家有断袖龙阳之好。\n冯乔捂额：好不容易重生一回，还能不能让人收拾贱人的同时，愉快的谈场恋爱？\n--------\n冯二爷：每天都有想要叼走我家闺女的狼崽子出现，不开心→_→。\n狼崽子：每天都要和未来岳父斗智斗勇，心好累←_←。","lastChapter":"第1008章 番外萧金钰 ","retentionRatio":54.86,"banned":0,"allowMonthly":false,"latelyFollower":536,"wordCount":2279886,"contentType":"txt","superscript":"","sizetype":-1,"highlight":{"title":["我","就","是","如","此","娇","花"]}},
        {"_id":"5836323138bcc1c615e5832b","hasCp":true,"title":"凤回巢","aliases":"","cat":"古代言情","author":"寻找失落的爱情","site":"zhuishuvip","cover":"/agent/http%3A%2F%2Fimg.1391.com%2Fapi%2Fv1%2Fbookcenter%2Fcover%2F1%2F1362823%2F1362823_650dd96132814049b6a9902efcb3344e.jpg%2F","shortIntro":"从侯府嫡女，到权倾天下的皇太后。顾莞宁这一生跌宕起伏，尝遍艰辛，也享尽荣华。闭上眼的那一刻，身心俱疲的她终于得以平静。没想到，一睁眼，她竟又重生回了十三岁的这一年……","lastChapter":"第1341章 番外之月圆（四）","retentionRatio":59.02,"banned":0,"allowMonthly":false,"latelyFollower":2209,"wordCount":2887584,"contentType":"txt","superscript":"","sizetype":-1,"highlight":{"title":["凤","回","巢"]}},
        {"_id":"5375c471fa4fb73f4900000c","hasCp":true,"title":"宁小闲御神录","aliases":"","cat":"武侠仙侠","author":"风行水云间","site":"zhuishuvip","cover":"/agent/http%3A%2F%2Fimg.1391.com%2Fapi%2Fv1%2Fbookcenter%2Fcover%2F1%2F44353%2F_44353_724540.jpg%2F","shortIntro":"踏上修妖路,挑战神魔界.    帅哥妖怪随身揣,天材地宝全拿来.    她一介凡人女子卷入玄幻世界是冥冥中自有定数,还是阴差阳错?都不重要.    修士、巨妖见一个虐一个,西行路上危险重重,但姐偏偏就要吃喝玩乐横着走!    (每日双更求粉红票,求领取水云的大神之光.保证完本,不胜感激)                                                                                         踏上修妖路,挑战神魔界.帅哥妖怪随身揣,天材地宝全拿来.她一介凡人女子卷...                                                 重生一世,她不再是那个温和纯善,安分愚孝的四姑娘.阴谋诡计?争权斗宠?样...","lastChapter":"定制番外：白糖结局与全书完","retentionRatio":32.24,"banned":0,"allowMonthly":false,"latelyFollower":871,"wordCount":7306922,"contentType":"txt","superscript":"","sizetype":-1,"highlight":{"title":["宁","小","闲","御","神","录"]}},
        {"_id":"588007f5be275ca91d834957","hasCp":true,"title":"金丹老祖在现代","aliases":"","cat":"现代言情","author":"月下箜篌","site":"zhuishuvip","cover":"/agent/http%3A%2F%2Fimg.1391.com%2Fapi%2Fv1%2Fbookcenter%2Fcover%2F1%2F1438262%2F1438262_6f019c8270864b43aef4e348a267f940.jpg%2F","shortIntro":"我是学渣？怎么可能，堂堂金丹老祖，半步元婴大能，区区凡间学问……给我一天时间，秒变学霸。你有灾祸要化解？可以，十二枚极品玉石，童叟无欺。你脸上长了斑？你怕老？简单，一粒定颜丹，保你不老妖精。诚惠十二枚玉石。你有病，没的治？笑话，培元丹一颗，药到病除。十二枚玉石，概不赊欠。要那么多玉石干什么，当然是修炼啊！","lastChapter":"第782章 好久不见（大结局）","retentionRatio":32.52,"banned":0,"allowMonthly":false,"latelyFollower":782,"wordCount":2171417,"contentType":"txt","superscript":"","sizetype":-1,"highlight":{"title":["金","丹","老","祖","在","现","代"]}},
        {"_id":"5895905068c9c0a31ce3e70a","hasCp":true,"title":"娱乐圈头条","aliases":"","cat":"现代言情","author":"莞尔wr","site":"zhuishuvip","cover":"/agent/http%3A%2F%2Fimg.1391.com%2Fapi%2Fv1%2Fbookcenter%2Fcover%2F1%2F1463597%2F_1463597_942445.jpg%2F","shortIntro":"从冯家的千金，重生成家境贫困，一心一意想要凭借美貌进入娱乐圈的新人。","lastChapter":"第681章 青梅竹马（下）","retentionRatio":34.34,"banned":0,"allowMonthly":false,"latelyFollower":395,"wordCount":1770685,"contentType":"txt","superscript":"","sizetype":-1,"highlight":{"title":["娱","乐","圈","头","条"]}},
        {"_id":"5805372d1fa83fb2178e90ed","hasCp":true,"title":"覆手繁华","aliases":"","cat":"古代言情","author":"云霓","site":"zhuishuvip","cover":"/agent/http%3A%2F%2Fimg.1391.com%2Fapi%2Fv1%2Fbookcenter%2Fcover%2F1%2F1229192%2F1229192_ca104580081d4b788938b95394e93e0e.jpg%2F","shortIntro":"她是个瞎子，在黑暗中生活了二十年。最终被冠上通奸罪名害死。当她重新睁开眼睛，看到了这个多彩的世界。——翻手苍凉，覆手繁华。一切不过都在她一念之间。PS：他知道那个杀伐果断的女子，一抢，二闹，三不要脸，才能将她娶回家。还不够？那他只能当一回腹黑的白莲花，引她来上当，要不怎么好意思叫宠妻。虐极品，治家，平天下，少一样怎么爽起来。***教主完结书，庶难从命、复贵盈门、吉时医到、掌家娘子。请大家收藏、留言、砸票。","lastChapter":"第773章 最好时节","retentionRatio":47.1,"banned":0,"allowMonthly":false,"latelyFollower":374,"wordCount":1765666,"contentType":"txt","superscript":"","sizetype":-1,"highlight":{"title":["覆","手","繁","华"]}},
        {"_id":"569f533e2cdbfc4473bee8f2","hasCp":true,"title":"君九龄","aliases":"","cat":"古代言情","author":"希行","site":"zhuishuvip","cover":"/agent/http%3A%2F%2Fimg.1391.com%2Fapi%2Fv1%2Fbookcenter%2Fcover%2F1%2F882203%2F882203_0ec7334e795a4a1d866d7e0fe7bcc379.jpg%2F","shortIntro":"太康三年冬，阳城北留镇宁家来了一个上门认亲的女孩子　　被拒婚之后，女孩子决定吊死在宁氏家门前以明志　　当死了的女孩子再次睁开眼　　很多人的命运就此翻天覆地","lastChapter":"第790章   以后的以后","retentionRatio":null,"banned":0,"allowMonthly":false,"latelyFollower":341,"wordCount":2002254,"contentType":"txt","superscript":"","sizetype":-1,"highlight":{"title":["君","九","龄"]}},
        {"_id":"55988812327d54817a547497","hasCp":true,"title":"炮灰晋级计划书","aliases":"","cat":"科幻","author":"快乐小巫婆","site":"zhuishuvip","cover":"/agent/http%3A%2F%2Fimg.1391.com%2Fapi%2Fv1%2Fbookcenter%2Fcover%2F1%2F857002%2F857002_ce81a2aff9ca4af5b42de4c9c9311302.jpg%2F","shortIntro":"让渣男渣女来的猛烈些吧\r\n风七月站在高高的山岗上手捧炸药包\r\n你们这些经验点，我要代表上帝消灭你们\r\n看我怎么拳打南山白莲花，脚踩北海男人渣，当完流氓当学霸，各项武艺全不差！\r\n穿越各种世界完成炮灰委托任务，风七月表示：人生就是这么多变","lastChapter":"第1763章 贵女也疯狂（32）","retentionRatio":42.58,"banned":0,"allowMonthly":false,"latelyFollower":654,"wordCount":3780830,"contentType":"txt","superscript":"","sizetype":-1,"highlight":{"title":["炮","灰","晋","级","计","划","书"]}},
        {"_id":"5ae182265103bb37516ee8fd","hasCp":true,"title":"封少的掌上娇妻","aliases":"","cat":"现代言情","author":"云淡月浅","site":"zhuishuvip","cover":"/agent/http%3A%2F%2Fimg.1391.com%2Fapi%2Fv1%2Fbookcenter%2Fcover%2F1%2F2292484%2F2292484_fa162965235b42cd9f6ffe4baa5457b3.jpg%2F","shortIntro":"“封少，少夫人跟人打架了！”\n“多找几个人，让她打个痛快！”\n“封少，少夫人被拉去相亲了！”\n“把孕检单拿去给他看看！”\n“封少，少夫人又逃了！”\n“派出海陆空三军，把她抓回来！”\n夏初七不明白，她和他不过是误睡了一晚，竟会惹上这号大人物，她逃家出走，被他抓个正着，她的婚事，被他轻飘飘搅黄，她赴国外旅游，他包下整个岛，还美其名曰“陪她玩”，可是被玩的分明是她！\n看着这位阴魂不散的大人物，她郁闷地说道：“你难道就没有更重要的事忙了吗？”\n他微微一笑，目光温柔而宠溺：“将你拐回家，就是我现在最重要的事！”","lastChapter":"第895章　送他入学","retentionRatio":32.42,"banned":0,"allowMonthly":false,"latelyFollower":686,"wordCount":1783651,"contentType":"txt","superscript":"","sizetype":-1,"highlight":{"title":["掌","娇"]}},
        {"_id":"58f4c1c53f467fe65f0eeeac","hasCp":true,"title":"以嫡为贵","aliases":"","cat":"古代言情","author":"木嬴","site":"zhuishuvip","cover":"/agent/http%3A%2F%2Fimg.1391.com%2Fapi%2Fv1%2Fbookcenter%2Fcover%2F1%2F1505531%2F1505531_519c7851e5cd4d75bdc7233692bfb4ab.jpg%2F","shortIntro":"明澜火中重生，再回顾家，及笄之年，至亲尚在。这一世，她再不会给她人做嫁衣，令亲者痛仇者快！————这是一个重生姑凉努力做好绊脚石的故事。","lastChapter":"第895章   大结局","retentionRatio":53.41,"banned":0,"allowMonthly":false,"latelyFollower":607,"wordCount":1999661,"contentType":"txt","superscript":"","sizetype":-1,"highlight":{"title":["以","嫡","为","贵"]}},
        {"_id":"5ac05c7bd0ee07f17a93da19","hasCp":true,"title":"重生甜妻小萌宝","aliases":"","cat":"现代言情","author":"七星草","site":"zhuishuvip","cover":"/agent/http%3A%2F%2Fimg.1391.com%2Fapi%2Fv1%2Fbookcenter%2Fcover%2F1%2F2266013%2F2266013_020215b9682b4c5094435848aae02691.jpg%2F","shortIntro":"重生一次，莫小米深深觉得抱个金大腿势在必行。同时，她也知道自己努力，才是最重要的。金大腿，配上金脑子，虐遍渣爹，伪善小三后妈，不知所谓的乱七八糟的姐姐妹妹······这是一个处心积虑抱大腿被反扑的小姑娘，萌蠢蠢地扮猪吃虎，华丽丽的逆袭，走上人生巅峰的故事。","lastChapter":"第1932章 莫小豆（番外十）","retentionRatio":34.44,"banned":0,"allowMonthly":false,"latelyFollower":503,"wordCount":2069442,"contentType":"txt","superscript":"","sizetype":-1,"highlight":{"title":["重","生","甜","妻","小","萌","宝"]}},
        {"_id":"542b461be4e3ec03583502d7","hasCp":true,"title":"金陵春","aliases":"","cat":"古代言情","author":"吱吱","site":"zhuishuvip","cover":"/agent/http%3A%2F%2Fimg.1391.com%2Fapi%2Fv1%2Fbookcenter%2Fcover%2F1%2F41751%2F41751_b79e110da5da4904b70b2988b72d4363.jpg%2F","shortIntro":"周少瑾重生了，前世背叛她的表哥程辂自然被三振出局了，可她还有程许，程诣，程举等许多个表哥……这是个我与程家不得不说的故事！","lastChapter":"第五百九十一章  最终","retentionRatio":null,"banned":0,"allowMonthly":false,"latelyFollower":1000,"wordCount":1965036,"contentType":"txt","superscript":"","sizetype":-1,"highlight":{"title":["金","陵","春"]}},
        {"_id":"59d24c94b648ccd82ebce342","hasCp":true,"title":"掌清","aliases":"","cat":"女尊","author":"leidewen","site":"zhuishuvip","cover":"/agent/http%3A%2F%2Fimg.1391.com%2Fapi%2Fv1%2Fbookcenter%2Fcover%2F1%2F2185660%2F2185660_63030b653f534d58b8df234c9c39bf1a.jpg%2F","shortIntro":"现代熟女郎青妤无意穿越成为咸丰继后钮祜禄青妤，与未来的老佛爷慈禧同期选秀，看一个平凡的满人庶女，如何在晚清波诡的政治形态下，从选秀起，入宫为嫔八个月成为皇后。","lastChapter":"第490章 拜托了！","retentionRatio":32.22,"banned":0,"allowMonthly":false,"latelyFollower":943,"wordCount":1056701,"contentType":"txt","superscript":"","sizetype":-1,"highlight":{"title":["掌","清"]}},
        {"_id":"58f62ca2e774d5e05fb59dc3","hasCp":true,"title":"妻华","aliases":"","cat":"古代言情","author":"夜惠美","site":"zhuishuvip","cover":"/agent/http%3A%2F%2Fimg.1391.com%2Fapi%2Fv1%2Fbookcenter%2Fcover%2F1%2F1524275%2F_1524275_826875.jpg%2F","shortIntro":"重生的她不再背负家族的使命和责任，尽情享受乡间女土豪的快意人生。然而天意弄人她面临以下几个问题：1三年后旷古烁今的六首状元正在她家门口书写莫欺少年穷。2被她踹断腿的柳三郎将来是外表风光霁月实则狠辣无比的魏王世子。3她关在后宅百般苛责的病秧子五年后是震动朝野的锦衣卫都指挥使。4没完没了的狗血时不时降临到她头上。女主说：“世上没有拳头解决不了的问题，一拳不行，就两拳。”男主说：“每天同夫人的迷弟迷妹们争宠，心好累。”女主：“你为渣渣求情？”男主：“我心疼你手痛。”总结：武力值破表双商在线女主vs表里不一腹黑实","lastChapter":"第681章   江山为聘","retentionRatio":34.28,"banned":0,"allowMonthly":false,"latelyFollower":784,"wordCount":1470110,"contentType":"txt","superscript":"","sizetype":-1,"highlight":{"title":["妻","华"]}},
        {"_id":"54f47277b1516c956b3df542","hasCp":true,"title":"诛砂","aliases":"","cat":"古代言情","author":"希行","site":"zhuishuvip","cover":"/agent/http%3A%2F%2Fimg.1391.com%2Fapi%2Fv1%2Fbookcenter%2Fcover%2F1%2F149782%2F_149782_552741.jpg%2F","shortIntro":"说起愿望,可能没人信.    但谢柔惠最大的愿望就是能够说一声不.    从她十二岁那年的夏天开始    如果那时候说一声不    姐姐就不会被水冲走    她不会被家人厌弃    不会舍下自己的孩子    不会被父亲嫁给镇北王为继室    也不会被继孙羞辱    也不会有今日被一条白绫缢死死不瞑目","lastChapter":"第五十五章    相约","retentionRatio":31.23,"banned":0,"allowMonthly":false,"latelyFollower":512,"wordCount":1715284,"contentType":"txt","superscript":"","sizetype":-1,"highlight":{"title":["诛","砂"]}},
        {"_id":"59326a3a1f6b782b664278f3","hasCp":true,"title":"幸得君","aliases":"","cat":"古代言情","author":"默溪","site":"zhuishuvip","cover":"/agent/http%3A%2F%2Fimg.1391.com%2Fapi%2Fv1%2Fbookcenter%2Fcover%2F1%2F2079935%2F2079935_d95882af3c5b44619ffc1b7042b9b9ca.jpg%2F","shortIntro":"陆苒珺觉得，自己前世一定是瞎了眼才会喜欢那个从未正眼瞧过她，害得她家破人亡的男人，所以这世她决定阻他的仕途，断他的后路。\n　　可有个人对她说，冤冤相报何时了，既然要做，就顺便斩草除根好了！","lastChapter":"第513章 终了","retentionRatio":32.4,"banned":0,"allowMonthly":false,"latelyFollower":585,"wordCount":1137813,"contentType":"txt","superscript":"","sizetype":-1,"highlight":{"title":["幸","得","君"]}},
        {"_id":"5722dd256a75535d2fdce852","hasCp":true,"title":"天命为凰","aliases":"","cat":"现代言情","author":"云芨","site":"zhuishuvip","cover":"/agent/http%3A%2F%2Fimg.1391.com%2Fapi%2Fv1%2Fbookcenter%2Fcover%2F1%2F994353%2F994353_3d309d4942ed4244b1bd3d273688108f.jpg%2F","shortIntro":"身为掌门之女，奈何渣爹停妻另娶，对她不闻不问有个天才师父，却废了经脉，没人搭理，等同流放还有继母冷眼旁观，弟妹天资出众……幸好有天轮在手，可以穿梭各界仙侠世界的炼丹术，魔法世界的公式，星际世界的炼体术……造就绝世天才看我月神剑所指，众皆俯首！","lastChapter":"第851章 番外","retentionRatio":31.12,"banned":0,"allowMonthly":false,"latelyFollower":713,"wordCount":1806643,"contentType":"txt","superscript":"","sizetype":-1,"highlight":{"title":["天","命","为","凰"]}},
        {"_id":"58cc5b7abc80e26c0482af0e","hasCp":true,"title":"珠玉在前","aliases":"","cat":"玄幻奇幻","author":"弈澜","site":"zhuishuvip","cover":"/agent/http%3A%2F%2Fimg.1391.com%2Fapi%2Fv1%2Fbookcenter%2Fcover%2F1%2F1484079%2F1484079_5130845066194f7dbe56f26e886caee4.jpg%2F","shortIntro":"一朝穿越入书中手拿男十八号前任剧本孟约觉得，可以，这套路不深直到她不得不去京城，成为女主的对照组孟约：这可就虐心了啊，我请求脱离剧本当然，引进强援也是可以的嗯，生活告诉我们，即使珠玉在前，也要尽情放飞自我","lastChapter":"第649章 番外：女皇陛下","retentionRatio":33.72,"banned":0,"allowMonthly":false,"latelyFollower":673,"wordCount":1438064,"contentType":"txt","superscript":"","sizetype":-1,"highlight":{"title":["珠","玉","在","前"]}},
        {"_id":"5087872dedc8f2b34c000024","hasCp":true,"title":"花开锦绣","aliases":"","cat":"古代言情","author":"吱吱","site":"zhuishuvip","cover":"/agent/http%3A%2F%2Fimg.1391.com%2Fapi%2Fv1%2Fbookcenter%2Fcover%2F1%2F1151931%2F_1151931_677288.jpg%2F","shortIntro":"诗书传家的傅氏最出名的不是恩封太子太保和状元及第，而是门口那三座贞节牌坊。\r\n　　傅家被称为福慧双全的九小姐傅庭筠怎么也没有想到，表哥居然信誓旦旦地说和她有私情，逼得她几乎走投无路……\r\n　　失之东隅，收之桑榆，原来，只要坚强地活下去，在红尘喧嚣中，她就能如花绽放，一路锦绣。\r\n　 ","lastChapter":"第三百一十四章  坍塌","retentionRatio":33.37,"banned":0,"allowMonthly":false,"latelyFollower":774,"wordCount":1054350,"contentType":"txt","superscript":"","sizetype":-1,"highlight":{"title":["花","开","锦","绣"]}},
        {"_id":"539eeed6be5a7d23352273fb","hasCp":true,"title":"大妆","aliases":"","cat":"古代言情","author":"青铜穗","site":"zhuishuvip","cover":"/agent/http%3A%2F%2Fimg.1391.com%2Fapi%2Fv1%2Fbookcenter%2Fcover%2F1%2F89619%2F_89619_139818.jpg%2F","shortIntro":"前世身为嫡房嫡孙女的她,在家变后流离惨死    今生她倚在软榻之上,看着跪在面前的当朝权臣    冷冷弹出指尖一点胭脂沫子    ——晚了,三叔.    真正高明的宅斗强者,    应该是吃人不吐骨头,杀人不见血光.    从五不娶的丧妇长女,到风光尊荣的诰命大妆    靠的不只是三分运气,还有十分眼光!","lastChapter":"番外 殷煦（2）","retentionRatio":30.22,"banned":0,"allowMonthly":false,"latelyFollower":898,"wordCount":1375333,"contentType":"txt","superscript":"","sizetype":-1,"highlight":{"title":["大","妆"]}},
        {"_id":"58c80c7f882c1f62026fbee0","hasCp":true,"title":"大帝姬","aliases":"","cat":"古代言情","author":"希行","site":"zhuishuvip","cover":"/agent/http%3A%2F%2Fimg.1391.com%2Fapi%2Fv1%2Fbookcenter%2Fcover%2F1%2F1477507%2F1477507_435a71b160a949058c87017b652b692c.jpg%2F","shortIntro":"穿越的薛青发现自己女扮男装在骗婚。不仅如此她还有一个更大的骗局。--------这是一个有很多秘密的人的故事","lastChapter":"第594章   尾声","retentionRatio":42.45,"banned":0,"allowMonthly":false,"latelyFollower":557,"wordCount":1870381,"contentType":"txt","superscript":"","sizetype":-1,"highlight":{"title":["大","帝","姬"]}}
        ],
        "order" : 3,
        "alias" : "nvpwb",
        "icon" : "",
        "created" : "2018-11-22T16:03:26.497Z",
        "sellType" : "无",
        "secondTitle" : null,
        "showDataType" : "评分",
        "endTime" : 0,
        "rotateDetail" : 1
      },
      {
        "bookType" : "3列表",
        "exposureType" : 2,
        "rotateNum" : 0,
        "sex" : "none",
        "_id" : "cc683b60516d4dd7ba367be85548742c",
        "title" : "神作红区",
        "books" : [
        {"_id":"57e71e54bb1103da34fea5bf","hasCp":true,"title":"锦桐","aliases":"","cat":"古代言情","author":"闲听落花","site":"zhuishuvip","cover":"/agent/http%3A%2F%2Fimg.1391.com%2Fapi%2Fv1%2Fbookcenter%2Fcover%2F1%2F1188300%2F1188300_7e812fd63bd3475eaa5eb49f62681747.jpg%2F","shortIntro":"李桐重生了，也清醒了，原来，他从来没爱过她惜过她……姜焕璋逆天而回，这一回，他要更上一层楼，他要做那真正的一人之下，万人之上……宁远千里而来：小爷我专业毁人不倦……………………一个银子其实一点也不铜臭的故事。","lastChapter":"第728章 番外","retentionRatio":56,"banned":0,"allowMonthly":false,"latelyFollower":313,"wordCount":1493565,"contentType":"txt","superscript":"","sizetype":-1,"highlight":{"title":["锦","桐"]}},
        {"_id":"59bb8f1ad1540a9c10a7871a","hasCp":true,"title":"全能胖女神","aliases":"","cat":"现代言情","author":"马家大小姐","site":"zhuishuvip","cover":"/agent/http%3A%2F%2Fimg.1391.com%2Fapi%2Fv1%2Fbookcenter%2Fcover%2F1%2F2178418%2F2178418_12f0bc0eef514e5bb50a5a796ac3382f.jpg%2F","shortIntro":"毕业后因为太胖，被同学嘲笑，被单位排挤，被爱情抛弃……\n穿越后，她用才能重新武装自己，成了人人敬仰膜拜的全能胖女神。\n她让神曲忐忑征服了歌迷的耳朵……\n她让花千骨、芈月霸占荧屏，征服人们的眼睛……\n她用八大菜系抓住了所有男人的嘴巴……\n她以彪悍和强硬，让所爱的男人跪下唱征服……\n以肥为美，她改变了这个时代人们的审美，让锥子脸、玻尿酸无地自容……\n她叫白凤，就是这个世界唯一的最胖女神！所有男人追求的全能女神！","lastChapter":"第800章 大结局","retentionRatio":34.06,"banned":0,"allowMonthly":false,"latelyFollower":557,"wordCount":1860067,"contentType":"txt","superscript":"","sizetype":-1,"highlight":{"title":["全","能","胖","女","神"]}},
        {"_id":"5342443f97dff3ce060152be","hasCp":true,"title":"市井贵女","aliases":"","cat":"古代言情","author":"双子座尧尧","site":"zhuishuvip","cover":"/agent/http%3A%2F%2Fimg.1391.com%2Fapi%2Fv1%2Fbookcenter%2Fcover%2F1%2F149675%2F_149675_588988.jpg%2F","shortIntro":"重生而来,有个隐身储物柜,谁也别再想抢走属于他们三兄妹的东西.    今生,她只想安于市井,做个小财主,保护好前世愧对的大哥和弟弟.    嫁什么样的男人?那不重要,老实可靠就行,和则合,不和则散.    可是,很多事似乎跟前世不同了,原来曾经有这么多事与他们一家擦肩而过.","lastChapter":"第505+506章 大结局","retentionRatio":32.7,"banned":0,"allowMonthly":false,"latelyFollower":925,"wordCount":1443661,"contentType":"txt","superscript":"","sizetype":-1,"highlight":{"title":["市","井","贵","女"]}},
        {"_id":"5ab0c7f5efb4417b05ec2f6c","hasCp":true,"title":"穿越之败家福晋","aliases":"","cat":"古代言情","author":"尤妮丝","site":"zhuishuvip","cover":"/agent/http%3A%2F%2Fimg.1391.com%2Fapi%2Fv1%2Fbookcenter%2Fcover%2F1%2F2253426%2F2253426_8b13ee43aefc445ea97b27e214abfd60.jpg%2F","shortIntro":"女主版大纲：富察盈玥被脑抽的乾隆陛下赐婚给了十一阿哥，没错！就是那个大清有史以来最抠门皇子、守财奴爱新觉罗永瑆，富察盈玥累觉不爱……于是决定，你当你的守财奴阿哥，我做我的败家福晋，咱们井水不犯河水。某守财奴一声大吼：没门儿！男主版大纲：年逾的古稀的长寿皇子爱新觉罗永瑆寿终正寝，没想到眼睛再睁开，却回到了幼年时代。三岁丧母、后妃虎视眈眈，重活一世的永瑆发现，自己除了自污，依旧别无选择。罢了罢了，反正演戏是什么的，早就业务熟练了~~突然有一天，他发现自己福晋竟然换了魂，而且还不想嫁给他了！某守财奴一声大吼：没门儿！","lastChapter":"第648章 后记四：固伦慧仪公主小传（撒花完结～）","retentionRatio":null,"banned":0,"allowMonthly":false,"latelyFollower":145,"wordCount":1481314,"contentType":"txt","superscript":"","sizetype":-1,"highlight":{"title":["穿","越","之","败","家","福","晋"]}},
        {"_id":"508785dfedc8f2b34c00001d","hasCp":true,"title":"重生之温婉","aliases":"","cat":"古代言情","author":"六月浩雪","site":"zhuishuvip","cover":"/agent/http%3A%2F%2Fimg.1391.com%2Fapi%2Fv1%2Fbookcenter%2Fcover%2F1%2F149780%2F_149780_544916.jpg%2F","shortIntro":"重生到古代,不仅成为口不能言的哑巴;还是祖母不喜,爹不疼,后母恶毒,克父克母克全家的不祥人.面对种种艰辛,各种刁难,她迎难而上,一一化解.中毒、暗杀、陷害接踵而来,她也无所畏惧.她本只想平淡,安静地过一生,可是时不待人.既如此,她再不愿如上辈子一样黯然伤逝,这世,她定要活出风采,创造属于她的传奇.","lastChapter":"第1365章 白启泽番外（下）","retentionRatio":52.56,"banned":0,"allowMonthly":false,"latelyFollower":737,"wordCount":5620584,"contentType":"txt","superscript":"","sizetype":-1,"highlight":{"title":["重","生","之","温","婉"]}},
        {"_id":"58304ea69af8962070d22b63","hasCp":true,"title":"农女倾城","aliases":"","cat":"古代言情","author":"渐进淡出","site":"zhuishuvip","cover":"/agent/http%3A%2F%2Fimg.1391.com%2Fapi%2Fv1%2Fbookcenter%2Fcover%2F1%2F1245402%2F1245402_552af7ad3c75441abb321055065f3073.jpg%2F","shortIntro":"沈晓晓穿越了，穿去了一个叫什么闵泽国的旮旯朝代，更悲催在是由集三千宠爱于一身的世家大族豪门千金穿成了奶不疼爷不爱在赔钱货。但上天从来都是待她不薄的，不，应该说从来都是厚厚待她的，所以作为补偿赠给她一个随身空间。且看她在这落后在古代过得怎样的如鱼得水，风生水起。让整个闵泽皇朝的人都知道他们的王妃倾国倾城，这倾的不仅仅是容貌更是才艺。","lastChapter":"第1291章 番外――希儿篇4","retentionRatio":null,"banned":0,"allowMonthly":false,"latelyFollower":729,"wordCount":2824428,"contentType":"txt","superscript":"","sizetype":-1,"highlight":{"title":["农","女","倾","城"]}},
        {"_id":"5756cbab185423f9046ae75e","hasCp":true,"title":"善终","aliases":"","cat":"古代言情","author":"玖拾陆","site":"zhuishuvip","cover":"/agent/http%3A%2F%2Fimg.1391.com%2Fapi%2Fv1%2Fbookcenter%2Fcover%2F1%2F949223%2F949223_d1721d20ff494235afef361fe2bd7a09.jpg%2F","shortIntro":"杜家有女，成亲三月，丈夫领皇命披挂出征，从此聚少离多。成婚五年，丈夫战死沙场，马革裹尸。她流尽眼泪，过继族子，青灯古佛，换来一座贞节牌坊。这是她一生荣耀，亦是一世桎梏。年老之时，她才知丈夫之死是一场阴谋，却已无仇可报。她看到满院子的花，就如他掀开盖头的那一日，她听见爽朗笑声，一如他在她身边的那些年。她知道自己活不长了，她站在牌坊下，手扶冰冷石柱，她不要这贞节之名，她只要他能陪她到老。她不要养别人的孩子，她要他们的亲儿。若能回到从前，她绝不让丈夫枉死，绝不让仇人善终！ ","lastChapter":"第737章 番外 抓周","retentionRatio":49.93,"banned":0,"allowMonthly":false,"latelyFollower":421,"wordCount":1572280,"contentType":"txt","superscript":"","sizetype":-1,"highlight":{"title":["善","终"]}},
        {"_id":"5359c4bc6abb63f05700f3c1","hasCp":true,"title":"闺宁","aliases":"","cat":"古代言情","author":"意迟迟","site":"zhuishuvip","cover":"/agent/http%3A%2F%2Fimg.1391.com%2Fapi%2Fv1%2Fbookcenter%2Fcover%2F1%2F239625%2F_239625_607664.jpg%2F","shortIntro":"谢姝宁死了。\r\n同幼子一道死在了阳春三月里。\r\n可眼一睁，她却回到了随母初次入京之时。天上白茫茫，路上雪皑皑，年幼的她被前世郁郁而终的母亲，和早夭的兄长一左一右护在中间。\r\n身下马车摇摇晃晃，正载着他们往她昔日噩梦驶去……","lastChapter":"番外 长相思","retentionRatio":40.8,"banned":0,"allowMonthly":false,"latelyFollower":343,"wordCount":1462624,"contentType":"txt","superscript":"","sizetype":-1,"highlight":{"title":["闺","宁"]}},
        {"_id":"58a3a1673c94431c52a5d1e9","hasCp":true,"title":"锦庭娇","aliases":"","cat":"古代言情","author":"青铜穗","site":"zhuishuvip","cover":"/agent/http%3A%2F%2Fimg.1391.com%2Fapi%2Fv1%2Fbookcenter%2Fcover%2F1%2F1456640%2F1456640_16c779389fce4d7d979c3e96587129cc.jpg%2F","shortIntro":"沈府二姑娘离府数年归来，人都说脱胎换骨不但脑子灵泛手段阴狠，品位性情也都大变。姑娘们说她是撞鬼了太太们说她是妖孽附体了！却没有一个人知道对于权倾朝野的韩阁老府上那位老太君来说面容陌生的她其实更像是她数十年前沾在手心的那道滚烫血印子……——————本文玄幻点只在于重生只在于重生！全文无无无异能，望周知……","lastChapter":"第570章 谁家新燕啄春泥（25）","retentionRatio":32.27,"banned":0,"allowMonthly":false,"latelyFollower":996,"wordCount":1236307,"contentType":"txt","superscript":"","sizetype":-1,"highlight":{"title":["锦","庭","娇"]}},
        {"_id":"5a17d68bdd246be63b07a330","hasCp":true,"title":"名门春事","aliases":"","cat":"古代言情","author":"饭团桃子控","site":"zhuishuvip","cover":"/agent/http%3A%2F%2Fimg.1391.com%2Fapi%2Fv1%2Fbookcenter%2Fcover%2F1%2F2238875%2F2238875_e8874d0f9f9c4e5e9a8c7e64bbbc1bb4.jpg%2F","shortIntro":"贺知春嫁给崔九郎十年仍是清白身！重生后，她端起陶罐狠狠砸破丫的头，从此崔郎是路人。这是一个吃货女主与毒舌蛇精病男的种田生活，种着种着，他们挖出了一个天大的秘密。","lastChapter":"第607章 番外：崔浩然PK李元芳","retentionRatio":48.9,"banned":0,"allowMonthly":false,"latelyFollower":383,"wordCount":1359816,"contentType":"txt","superscript":"","sizetype":-1,"highlight":{"title":["名","门","春","事"]}},
        {"_id":"56e3cfeb4ee9d70763a24a8d","hasCp":true,"title":"天医凤九","aliases":"","cat":"女尊","author":"凤炅","site":"zhuishuvip","cover":"/agent/http%3A%2F%2Fimg.1391.com%2Fapi%2Fv1%2Fbookcenter%2Fcover%2F1%2F940205%2F940205_e65670f3be8241188f450954377967cf.jpg%2F","shortIntro":"她，现代隐门门主，集各家所长的变态鬼才，精医毒，擅暗杀，世人眼中的变态妖物，一次意外身亡，却重生在一个被毁容的少女身上。什么？容颜被毁，身份被取代？回归家族遥遥无期？身份可以不要，家族可以不回，但那害了前身之人，她若不整得他们鸡飞狗叫惨不忍睹如何对得起她妖物之名？一朝风云骤起，群雄争霸！且看她如何一袭红衣走天下，剑挑群雄震苍穹！名扬四海惊天地！","lastChapter":"第5208章 不合适","retentionRatio":60.58,"banned":0,"allowMonthly":false,"latelyFollower":3989,"wordCount":5596383,"contentType":"txt","superscript":"","sizetype":-1,"highlight":{"aliases":["医"],"author":["凤"],"title":["天","医","凤","九"]}},
        {"_id":"582c5ba9ac41ac7430f81c59","hasCp":true,"title":"玉石传说","aliases":"","cat":"玄幻奇幻","author":"烈焰小奶瓶","site":"zhuishuvip","cover":"/agent/http%3A%2F%2Fimg.1391.com%2Fapi%2Fv1%2Fbookcenter%2Fcover%2F1%2F1230693%2F_1230693_040800.jpg%2F","shortIntro":"全家被杀是因为这个秘密，参军是为了奶奶的遗愿，女扮男装是为了逃避追杀，出生带有的玉石胎记拥有神秘的作用，杀戮的一生，和最爱的人死在一起，却一个人在另一个世界复活，归根结底都是它惹的祸——精彩尽在《玉石传说》奶瓶书友扣扣群：三四零八七六三五","lastChapter":"第351章 秘密再现","retentionRatio":31.72,"banned":0,"allowMonthly":false,"latelyFollower":561,"wordCount":762909,"contentType":"txt","superscript":"","sizetype":-1,"highlight":{"title":["玉","石","传","说"]}},
        {"_id":"5b618bbfa1b785d267a0f17b","hasCp":true,"title":"草根女帝","aliases":"","cat":"古代言情","author":"杨不寻","site":"zhuishuvip","cover":"/agent/http%3A%2F%2Fimg.1391.com%2Fapi%2Fv1%2Fbookcenter%2Fcover%2F1%2F3315486%2F3315486_bb2f738f50bc4e95a44894f167705b5e.jpg%2F","shortIntro":"本帝不与女斗，与天斗！\n复国路漫漫，男色不为所动，泯灭仁慈机关算尽。\n逆境蛰伏，伺机而动，能忍，能打，会撩人～","lastChapter":"第264章 雷决出宫笑岚求见","retentionRatio":null,"banned":0,"allowMonthly":false,"latelyFollower":0,"wordCount":622812,"contentType":"txt","superscript":"","sizetype":-1,"highlight":{"title":["草","根","女","帝"]}},
        {"_id":"556ba466a318fdec3d0c5228","hasCp":true,"title":"一指成仙","aliases":"","cat":"武侠仙侠","author":"潭子","site":"zhuishuvip","cover":"/agent/http%3A%2F%2Fimg.1391.com%2Fapi%2Fv1%2Fbookcenter%2Fcover%2F1%2F1153219%2F1153219_04a2ec6d748243dd8e8cf7df72daa444.jpg%2F","shortIntro":"当了三百多年的小幡鬼卢悦，因为自家双胎姐姐送的一滴精血，准备去轮回转世，孰料，魔门大佬元婴自暴，正值血月当空，轮回道上，卢悦被卷进一股时光乱流当中。再醒来时，却回到了身死的两年前。\n\n　　重活一世，卢悦脚踏实地，走向一条不一样的仙路。","lastChapter":"VIP卷 圣者之迷（五）","retentionRatio":47.82,"banned":0,"allowMonthly":false,"latelyFollower":709,"wordCount":5553921,"contentType":"txt","superscript":"","sizetype":-1,"highlight":{"title":["一","指","成","仙"]}},
        {"_id":"5a6ef631b96be87a1088688b","hasCp":true,"title":"重生家中宝","aliases":"","cat":"现代言情","author":"程嘉喜","site":"zhuishuvip","cover":"/agent/http%3A%2F%2Fimg.1391.com%2Fapi%2Fv1%2Fbookcenter%2Fcover%2F1%2F2213526%2F2213526_01a9a14a58d44887875514537deb00ea.jpg%2F","shortIntro":"刻薄，力大的重生野丫头vs腹黑，记仇，小心眼的本土励志男。田野重生到七十年代的上岗大队，天生神力的孤女，因为小有家产为村民算计，田野为守住家产，施计谋摆脱村民窥探。从克父克母被人所不喜，到福泽深厚被爱人捧做手中宝。","lastChapter":"进城篇 第八百九十章 小姑","retentionRatio":70.94,"banned":0,"allowMonthly":false,"latelyFollower":907,"wordCount":1971131,"contentType":"txt","superscript":"","sizetype":-1,"highlight":{"title":["重","生","家","中","宝"]}},
        {"_id":"5af175f74f008d5618365812","hasCp":true,"title":"欢喜记事","aliases":"","cat":"古代言情","author":"木嬴","site":"zhuishuvip","cover":"/agent/http%3A%2F%2Fimg.1391.com%2Fapi%2Fv1%2Fbookcenter%2Fcover%2F1%2F2314277%2F2314277_d9e4ac730b8149dfa734663b1a9447a3.jpg%2F","shortIntro":"穿越到刚刚招安封侯的土匪一家。亲爹，威武勇猛爱闯祸。亲娘，貌美如花爱爱闯祸。亲哥，英俊潇洒爱爱爱闯祸。……你问她啊？她就比较懂事了，刚刚从街上抢回来一压宅夫君…… ","lastChapter":"正文卷 第五百九十二章 假如","retentionRatio":68.05,"banned":0,"allowMonthly":false,"latelyFollower":3698,"wordCount":1411295,"contentType":"txt","superscript":"","sizetype":-1,"highlight":{"title":["欢","喜","记","事"]}},
        {"_id":"583065afc22a431a208448e2","hasCp":true,"title":"魔魂枪风","aliases":"","cat":"武侠仙侠","author":"落雪不止","site":"zhuishuvip","cover":"/agent/http%3A%2F%2Fimg.1391.com%2Fapi%2Fv1%2Fbookcenter%2Fcover%2F1%2F1298029%2F1298029_563abfe9cb5149918dee7fbcbdbb31b6.jpg%2F","shortIntro":"他、魔魂枪风、深藏绝技笑傲江湖终淡定；她、仙魂花玥、心藏深爱未语先羞、在举步维艰的神魂苦修之路上，这一对少男少女是如何倾心相爱、冲破重重障碍、脉脉相佑与相守呢？","lastChapter":"小番外：写给喜欢《魔魂枪风》的兄弟姐们。","retentionRatio":33.99,"banned":0,"allowMonthly":false,"latelyFollower":905,"wordCount":6492572,"contentType":"txt","superscript":"","sizetype":-1,"highlight":{"title":["魔","魂","枪","风"]}},
        {"_id":"583036c2806e99cf54446eec","hasCp":true,"title":"朱颜女将","aliases":"","cat":"古代言情","author":"绾绾流年","site":"zhuishuvip","cover":"/agent/http%3A%2F%2Fimg.1391.com%2Fapi%2Fv1%2Fbookcenter%2Fcover%2F1%2F1246596%2F_1246596_468006.jpg%2F","shortIntro":"她，赤穹国权侵朝野的慕府长女，自小不爱红妆，只喜舞刀弄枪，九岁跟随父亲入战杀敌，“绯红之刃”令人闻风丧胆。却不想一朝父亲离奇失踪，手中军权被收，门下之人纷纷倒戈，她一人扛起家族，寻找父亲，以及阴谋背后的真相......虽是凌厉狠辣，却甘心为一人尽露小女儿情态，纵使那人是敌国将军，却是义无反顾，只愿与他披荆斩棘，执手前行。终有一日，一个个连环圈套以及爱人的背叛令她身心俱伤，而她也终于发觉，身边始终另有一个身影，世人皆道此人冷血无情，他却独独给予自己温暖的陪伴，无言地守护，也只有面对他时，她可以卸下所有面具与包袱。这一次，她会放下心中的执念，执手于他吗？小说原名《绯颜劫》，谢谢大家支持。","lastChapter":"番外之觅音篇（下）","retentionRatio":33.73,"banned":0,"allowMonthly":false,"latelyFollower":563,"wordCount":520683,"contentType":"txt","superscript":"","sizetype":-1,"highlight":{"title":["朱","颜","女","将"]}},
        {"_id":"5190471f4766387f21000030","hasCp":true,"title":"女人就要狠","aliases":"","cat":"现代言情","author":"一个女人","site":"zhuishuvip","cover":"/agent/http%3A%2F%2Fimg.1391.com%2Fapi%2Fv1%2Fbookcenter%2Fcover%2F1%2F42787%2F_42787_658367.jpg%2F","shortIntro":"新新女性的标准:开得起好车、买得起好房,斗得过小三、打得过流氓;能够重新活一次的紫珊立志要成为新女性之楷模,只是她有一个疑问:这样的话,姐还要男人来做什么,要不要让他们通通离姐远一点?","lastChapter":"450章 输得彻底（大结局）","retentionRatio":34.4,"banned":0,"allowMonthly":false,"latelyFollower":687,"wordCount":1469484,"contentType":"txt","superscript":"","sizetype":-1,"highlight":{"author":["女","人"],"title":["女","人","就","要","狠"]}},
        {"_id":"50879b2e35d2308953000001","hasCp":true,"title":"娥媚","aliases":"","cat":"武侠仙侠","author":"峨嵋","site":"zhuishuvip","cover":"/agent/http%3A%2F%2Fimg.1391.com%2Fapi%2Fv1%2Fbookcenter%2Fcover%2F1%2F66524%2F_66524_196409.jpg%2F","shortIntro":"师父一派仙风道骨,内里百分百资深老流氓.大师兄可爱仙童外表下,有颗很黄很暴力的心.二师兄貌似温文尔雅,掩饰不住满腹风骚与阴险.三师姐狐媚妖冶迷死人,实是粗鲁蛮力男人婆一枚.四师兄在外人称惊才绝艳,私下傲娇毒舌贪吃好打斗……","lastChapter":"番外-半缘修道半缘君","retentionRatio":32.88,"banned":0,"allowMonthly":false,"latelyFollower":823,"wordCount":1145838,"contentType":"txt","superscript":"","sizetype":-1,"highlight":{"title":["娥","媚"]}},
        {"_id":"519048184766387f21000053","hasCp":true,"title":"御人","aliases":"","cat":"古代言情","author":"峨嵋","site":"zhuishuvip","cover":"/agent/http%3A%2F%2Fimg.1391.com%2Fapi%2Fv1%2Fbookcenter%2Fcover%2F1%2F69814%2F_69814_182762.jpg%2F","shortIntro":"不拐卖哪来人才济济?不腐败何以提升就业率?不腹黑怎么包养弱小,蹂躏各路枭雄?作为一个有理想,有追求,三观端正,事业有成的良家少女,白茯苓觉得自己需要的是可以供她折腾欺负的忠犬男,不是这种以折腾欺负她为乐的腹黑男!面对惹不起躲不起的凶猛大魔头,她只有施展御人绝技,与他斗智斗勇死磕到底!","lastChapter":"番外-假想敌们","retentionRatio":34.95,"banned":0,"allowMonthly":false,"latelyFollower":800,"wordCount":891848,"contentType":"txt","superscript":"","sizetype":-1,"highlight":{"title":["御","人"]}},
        {"_id":"5bb18f2ddf3a8ed5731b1041","hasCp":true,"title":"重生军婚甜如蜜","aliases":"","cat":"现代言情","author":"顾暖之","site":"zhuishuvip","cover":"/agent/http%3A%2F%2Fimg.1391.com%2Fapi%2Fv1%2Fbookcenter%2Fcover%2F1%2F3331556%2F3331556_c712a1051caa47f6bdf46f24a16ce266.jpg%2F","shortIntro":"被老师用粉笔头打醒，结果发现自己已经回到了学生时代，\n这大概是很多人的梦想吧！\n既然上天给了她一次重来的机会，\n余笙发誓，一定要查出她意外死亡的真相！\n只是上辈子就追着她不放的这个兵哥哥，你能不能放我一马？\n某男：我不是放马的。\n这是一段先走心再走肾的爱情。\n双世c，1v1，日常轻松向。非传统军婚，考究党慎入。","lastChapter":"第305章 我看你是找揍","retentionRatio":39,"banned":0,"allowMonthly":false,"latelyFollower":1484,"wordCount":356114,"contentType":"txt","superscript":"","sizetype":-1,"highlight":{"title":["重","生","军","婚","甜","蜜"]}}
        ],
        "order" : 5,
        "alias" : "nvpszhq",
        "icon" : "",
        "created" : "2018-11-01T11:22:15.740Z",
        "sellType" : "无",
        "secondTitle" : null,
        "showDataType" : "评分",
        "endTime" : 0,
        "rotateDetail" : 0
      }
    ],
    "spread" : [
      {
        "advType" : "1",
        "alias" : "nvpdbbn",
        "order" : 0,
        "title" : "女频顶部banner",
        "secondTitle" : null,
        "advs" : [
          {
            "img" : "https:\/\/plf-bucket.zhuishushenqi.com\/management\/images\/20181129\/4c6d735b3a81424891dbf5fb711a0592.jpg",
            "order" : 1,
            "title" : "本王让你消停点",
            "link" : "59a5321f773b71f312089ebf",
            "simpleDes" : "本王让你消停点",
            "type" : "c-bookdetail",
            "fullDes" : "本王让你消停点\r\n"
          },
          {
            "img" : "https:\/\/plf-bucket.zhuishushenqi.com\/management\/images\/20181129\/de28b7f59dde43c7a28455ed5b69392c.jpg",
            "order" : 2,
            "title" : "追婚锁爱：蜜宠小甜妻",
            "link" : "5bbf1a4f3c0d0670438b1f85",
            "simpleDes" : "追婚锁爱：蜜宠小甜妻",
            "type" : "c-bookdetail",
            "fullDes" : "追婚锁爱：蜜宠小甜妻\r\n"
          },
          {
            "img" : "https:\/\/plf-bucket.zhuishushenqi.com\/management\/images\/20181129\/63558fa6a11541ff83b2a9a6a6a571e3.jpg",
            "order" : 3,
            "title" : "知你如我，情深不负",
            "link" : "5ba1c06c73a61f0e1a1170fa",
            "simpleDes" : "知你如我，情深不负",
            "type" : "c-bookdetail",
            "fullDes" : "知你如我，情深不负\r\n"
          }
        ]
      }
    ],
    "nodeids" : [

    ]
  },
  "ok" : true
}