{
  "images" : [
    {
      "idiom" : "universal",
      "filename" : "设置(1)@1x.png",
      "scale" : "1x"
    },
    {
      "idiom" : "universal",
      "filename" : "设置(1)@2x.png",
      "scale" : "2x"
    },
    {
      "idiom" : "universal",
      "filename" : "设置(1)@3x.png",
      "scale" : "3x"
    }
  ],
  "info" : {
    "version" : 1,
    "author" : "xcode"
  }
}